<svg version="1.1" viewBox="0 0 328 36" xmlns="http://www.w3.org/2000/svg" xmlns:xlink="http://www.w3.org/1999/xlink">
  <text transform="scale(.264583)" style="fill:#000000;font-family:sans-serif;font-size:40px;line-height:1.25;shape-inside:url(#rect66564);white-space:pre" xml:space="preserve"><tspan></tspan></text>
  <g transform="translate(-8.2482 18.643)" style="stroke-width:.264583;white-space:pre" aria-label="SYNTROPIZE">
    <path d="m38.8475 3.19242-.0508-.0508-3.7084-4.8768c0-.0508-.0508-.0508-.0508-.0508l-.8128-.8636h-.0508l-8.3312-1.524-.508-.6604-5.4356-1.7272.6604-2.6416 3.9116-1.1684 3.8608.8636h.0508l4.4704 2.6416.0508.0508h.0508l1.0668-.508.0508-.0508 2.6924-4.8768 1.016-1.2192v-.0508l-4.4196-3.2512c0-.0508 0-.0508-.0508-.0508l-5.7404-1.1684-5.1816-.2032s0 .0508-.0508.0508l-7.62 1.6764c-.0508 0-.0508.0508-.0508.0508l-.1524 1.1176-3.048 3.6068s-.0508 0-.0508.0508l-.508 1.8796v.0508l.2032 6.9088c-.0508.0508 0 .0508 0 .1016l4.2672 3.556 6.1468 2.5908 3.7592.508.3048.4572v.0508l3.8608 1.9812-1.1176 2.3368-4.064.3048-5.4356-.6604-4.572-3.2512h-.1016l-3.8608 3.4036s-.0508 0-.0508.0508l-.8636 2.9972.762 1.4732.0508.0508h.0508l1.27-.1524 3.5052 2.8448c0 .0508.0508.0508.0508.0508l6.4008 1.1684h.0508 6.1976l4.2164-1.1684c.0508 0 .0508-.0508.0508-.0508l5.08-3.7084 1.2192-.508v-.0508z" style="fill:#ffd500"></path>
    <path d="m38.8475 3.19242-.0508-.0508-3.7084-4.8768c0-.0508-.0508-.0508-.0508-.0508l-.8128-.8636h-.0508l-8.3312-1.524-.508-.6604-5.4356-1.7272.6604-2.6416 3.9116-1.1684 3.8608.8636h.0508l4.4704 2.6416.0508.0508h.0508l1.0668-.508.0508-.0508 2.6924-4.8768 1.016-1.2192v-.0508l-4.4196-3.2512c0-.0508 0-.0508-.0508-.0508l-5.7404-1.1684-5.1816-.2032s0 .0508-.0508.0508l-7.62 1.6764c-.0508 0-.0508.0508-.0508.0508l-.1524 1.1176-3.048 3.6068s-.0508 0-.0508.0508l-.508 1.8796v.0508l.2032 6.9088c-.0508.0508 0 .0508 0 .1016l4.2672 3.556 6.1468 2.5908 3.7592.508.3048.4572v.0508l3.8608 1.9812-1.1176 2.3368-4.064.3048-5.4356-.6604-4.572-3.2512h-.1016l-3.8608 3.4036s-.0508 0-.0508.0508l-.8636 2.9972.762 1.4732.0508.0508h.0508l1.27-.1524 3.5052 2.8448c0 .0508.0508.0508.0508.0508l6.4008 1.1684h.0508 6.1976l4.2164-1.1684c.0508 0 .0508-.0508.0508-.0508l5.08-3.7084 1.2192-.508v-.0508zm-23.7236-19.6088 7.112-1.6256-1.1176 1.4732-.6096.762zm7.366-1.6256 4.8768.1524-.4572.4572-3.4036 3.048-.508-1.8288zm.6604 2.794.254.8636-2.794-1.3716 1.778-2.2352zm.5588.8636 3.81-3.4544 1.4224 2.5908zm9.5504-2.3368v.6604l-.0508 1.3208-5.334-3.048zm-.3048 1.9812-3.9116-.508-1.3716-2.4892zm.4064-1.8796 4.064 2.9464-4.1148-1.016v-.6604zm-18.7452 1.3208.1524-1.0668 5.0292.6096zm.1016.1524 5.6388-.508-1.7272 2.8956zm8.5344.8636-4.4704 1.524 1.778-2.8956zm-11.6332 2.5908 2.8956-3.4544 3.9116 2.4384zm12.1412-2.54 5.08-.8636-2.2352 2.2352-2.54-1.2192zm9.398.508-.1524 1.6256-2.794-2.2352-.9652-.762 3.9624.508zm-4.1656-1.3716.6096 1.9812.6096 1.9304-3.4544-1.6256zm3.048 3.4036-1.6764.508-1.2192-3.81 3.7592 3.048zm5.4864-1.8288-4.4196 1.524.1016-1.27.1016-1.3208zm-18.796.9144 4.6228-1.524-2.8448 4.7752zm1.9812 3.2004 1.8796-3.1496.9144-1.5748 1.5748 2.5908-2.1844 1.0668zm2.9464-4.7244 2.8448 1.3716-1.3208 1.1176zm13.9192.762-.9144 1.016-3.0988.3048zm-9.7028 2.9464.3556.6604-2.9464-1.778 1.3208-1.1684zm1.4224.0508-.9144.7112-1.5748-2.9464 3.3528 1.524zm-17.6276-1.2192 6.9088-1.016 1.1684 5.9436zm22.352 4.064-.9144-4.3688 3.5052-.3556zm-14.1732.7112-.3048-1.6256-.7112-3.81 1.6256 3.048zm14.0208-.762-3.4544-3.5052.9144-.254 1.6764-.508zm-22.2504-3.9116 8.128 4.9784-3.9624 3.6576zm16.4084 1.778-3.5052-.762.3556-.508.3048-.4572zm-16.9672-.0508.4572-1.6764 3.7084 7.7724zm10.16.254 3.7592-1.8796-.1016.2032-.508.7112zm11.5316 2.4892-4.2672-2.5908.7112-.5588 1.1176-.8128zm1.1176-.3556-.8636.4572-2.3368-3.7592.3048.3048zm-22.8092-2.1336 4.572 6.6548h-4.4196zm8.9408 3.0988 5.1816 1.6256-2.3368 2.0828zm-.0508 3.048.1016 1.524-4.1656-.9652 3.9116-3.556zm2.794.7112-.9144.254-1.6764.508-.1016-1.4732-.1524-2.9464zm2.54-2.0828.4572.5588-2.4384 1.2192 1.7272-1.524zm.762.7112 7.5184 1.3716-5.588.1016zm.4064 2.9972-3.4544-1.5748 2.794-1.4224zm.762-1.9304.6604.508-1.3208 1.3716-.6604-2.8956zm-15.9004.254h4.3688l-.3556 3.3528zm4.3688 1.1176.1016-1.1176 4.1148.9144-4.4196 2.4892zm18.4404-.9652.7112.7112-5.6896-.6096zm-11.2776 0 1.1684 3.81-3.7592-3.048zm1.3208 3.8608-1.2192-3.81 3.4544 1.5748zm10.5664-3.048-5.0292 2.1844-1.3716-2.3368-.254-.508zm-5.2324 2.1336-2.8956-1.3716 1.3716-1.3716zm-8.0264.4572-5.842-.1016 4.4196-2.4384 1.2192 2.1844zm13.5636-2.4892 3.6068 4.7244-5.08-.8128.762-1.9812zm-1.6256 3.8608-3.6068-1.6764 5.08-2.1844zm-11.7856-1.3716-1.27-2.3368 3.5052 2.8448zm2.6924.508 2.2352-2.2352 2.8956 1.3716zm5.4356-.7112 3.6068 1.7272-2.0828 2.2352zm-.1016 0 .762 1.9812.762 2.032-5.334-.3556zm-3.302 2.3368-1.016.8128-1.1176-2.286 5.1816-.8636zm-4.8768-.8636v1.1684l-5.7404-2.4384 5.7912.1016zm.3556-1.1176 2.2352.508 1.016 2.0828zm3.2512 2.794-3.4544-.508v-2.2352zm.5588.508-.254-.4064 3.302-2.54zm10.0076 4.572-.4572.762-1.6256-7.2136 5.1308.8128zm-.6096.7112-3.7084-4.826 1.1176-1.2192.9652-1.0668zm3.6576-6.1468-.508 8.0264-2.8956-1.6256 2.6924-5.08zm-12.7508 1.016 5.1816.3048-1.5748 1.5748zm3.7084 1.9812 1.6256-1.6256 3.6576 4.826zm-15.494-1.0668.2032 3.81-3.8608-.5588zm.1016 0 3.9116 3.7084-3.6576.1016-.0508-.9652zm.5588.3556 3.9116 2.7432-.4064.6096zm13.6144 3.048 1.1684-2.2352 5.2832 3.2004zm-5.1308.3048h-4.826l.4064-.5588zm-13.0048 3.8608.0508-3.1496v-1.0668l3.9116.5588zm14.1224-3.7592 3.9116-.3048.6096 3.81-3.2004-2.4384zm4.0132-.3048 6.5024 1.016-5.842 2.9464-.3556-1.9812zm-18.288 3.9624-.6604-1.2192.762-2.4892-.0508 2.3876zm13.6652-3.6068-3.81 1.2192-1.1176-.8636-.4064-.3556zm-4.064 1.1684-4.6736-1.0668 3.2004-.1016zm9.0932 2.4384-7.3152-.508 2.7432-3.0988zm-5.8928-3.2004 1.0668-.3556-2.6416 2.9972-.6604-.8636-.6096-.8636zm-7.8232 6.096-.1524-1.5748-.4572-4.7752 5.2324 5.1308zm-.1524-.0508-3.4036-2.794.9652-1.1684 1.8796-2.3368zm4.064-5.334.9144.2032-.0508 1.27-.0508 2.5908-5.1308-5.0292zm-8.636 2.6416 3.3528-3.048-2.286 2.8956zm26.5684-.9652-4.826 3.556 1.1176-2.0828 1.9304-3.556zm-5.0292 3.7084-2.794-2.794 5.8928-2.9464zm5.1308-3.7592-1.5748-1.8796 2.5908 1.4224zm-16.764-.9144 1.016 1.3716-1.3208 1.8796v-1.8288l.0508-1.778zm8.4836 1.9304-7.1628 3.9116-.1016-2.2352-.1016-2.1844 4.2164.254zm-8.7884 1.524 1.3208-1.9304.1016 2.0828.0508 2.1336zm7.62 2.4384h-5.842l7.1628-3.9116zm4.2164-1.1684-4.064 1.1176 1.3208-3.8608zm-10.5156 1.1176-5.9436-1.1176 2.0828-.5588 2.3876-.6096z"></path>
    <path d="m69.937-17.8388-5.9436.2032s-.0508-.0508-.0508 0l-3.2004 6.4516h-.0508l-.0508.0508-2.032 5.588-.9144.508-3.2004-5.4864v-.0508c0-.0508-.0508-.1016-.0508-.1016l-1.3208-1.6256-1.8796-3.9624-.8636-1.016-.0508-.0508-4.1656-.1524-3.81-.1524s-.0508-.0508-.0508 0h-.0508l-2.3368.3048h-.0508v.0508.0508l1.7272 4.7752c-.0508.0508-.0508.0508 0 .1016l3.7084 3.7592c0 .0508.0508.0508.0508.1016l.0508.0508 3.5052 4.8768 2.032 5.588.0508.0508 1.8288 1.4224-.6604 2.54v.0508.0508l.3048 7.7724-.8128 2.3876v.0508.0508l2.7432.6604h.0508l2.8956-.3556 3.6576.3556h.0508.0508l2.032-.3556c.0508 0 .0508-.0508.0508-.0508l-.7112-5.7912.2032-8.0264 1.524-1.4732 1.3716-3.6068v-.0508l6.8072-9.652 2.54-5.08v-.0508-.0508z" style="fill:#ffd500"></path>
    <path d="m69.937-17.8388-5.9436.2032s-.0508-.0508-.0508 0l-3.2004 6.4516h-.0508l-.0508.0508-2.032 5.588-.9144.508-3.2004-5.4864v-.0508c0-.0508-.0508-.1016-.0508-.1016l-1.3208-1.6256-1.8796-3.9624-.8636-1.016-.0508-.0508-4.1656-.1524-3.81-.1524s-.0508-.0508-.0508 0h-.0508l-2.3368.3048h-.0508v.0508.0508l1.7272 4.7752c-.0508.0508-.0508.0508 0 .1016l3.7084 3.7592c0 .0508.0508.0508.0508.1016l.0508.0508 3.5052 4.8768 2.032 5.588.0508.0508 1.8288 1.4224-.6604 2.54v.0508.0508l.3048 7.7724-.8128 2.3876v.0508.0508l2.7432.6604h.0508l2.8956-.3556 3.6576.3556h.0508.0508l2.032-.3556c.0508 0 .0508-.0508.0508-.0508l-.7112-5.7912.2032-8.0264 1.524-1.4732 1.3716-3.6068v-.0508l6.8072-9.652 2.54-5.08v-.0508-.0508zm4.6228.762-7.4676 1.9812 2.8448-2.5908zm-4.8768-.6096-2.8448 2.6416-2.7432-2.4892zm-27.2288.1524 3.6068.1524.8128 3.5052.508 2.1844zm-.1524 0 4.826 5.6896-7.0104-5.3848zm18.542 6.2484 3.1496-6.1976 2.7432 2.4892zm-14.5288-6.096 3.81.1524-1.2192.9652-.6096.4572zm.2032 1.524-.3048-1.4224 1.3208 1.0668.6604.508-.7112 3.8608zm3.81-1.3208.7112.8636-2.3876.508h-.1524zm-10.2616.1016 7.1628 5.4864-5.5372-.8636zm34.6964.1016-2.4384 4.9276-5.2832-2.9464zm-23.622.8128 1.778 3.6576-4.4704-3.1496zm-2.8448.5588 4.572 3.2512-5.2832.8128zm19.2532 4.2672-6.604.1524 5.842-3.7084zm-.6096-3.556 5.1308 2.8956-4.4196.6604-.254-1.1684zm-18.8468 5.334-5.9944-2.6924 5.3848.8636zm3.7084-.2032-4.0132-1.6764 5.1308-.8128zm-9.906-2.4384 6.1468 2.7432-2.6416.8128zm11.176 0 1.1684 1.5748-1.1684.4572-1.1684.4064zm18.8976.3556-6.2992 4.1148.5588-.9652 1.4224-2.54zm0 .1524-6.35 6.9088-.0508-2.032v-.6604zm-24.3332.3556 3.81 1.6256-3.2004.2032zm24.13.0508-6.1976 8.8392.0508-2.1336zm-10.8712.2032 6.604-.1524-.3556.6096-1.6764 2.9972zm-.2032 4.1656.1016-4.064 4.6228 3.4544-4.826 4.6228zm-1.9304 1.4224 1.8796-5.2832-.1016 4.9784-.0508 2.8448zm-4.8768-4.8768.4064-.1524-1.6256 6.1976-.8128-5.2324zm.508 5.842.1016-5.842 3.0988 5.3848-1.5748 2.9972-1.7272 3.302zm-.1524.6604-.0508 5.0292-1.4732-5.1308 1.6256-5.9944zm-5.9436-5.5372 3.4544-.1524.762 5.334zm-2.794.8636.8636-.254 1.778-.5588 4.2164 5.1308zm3.5052 4.8768-3.4036-4.6736 6.858 4.318zm16.3068-3.6068-1.1684 3.2004-.5588 1.4224-2.8448-.2032zm.1016.1524.1016 2.4384-1.7272 1.8288zm-6.8072 1.6764 1.6256 2.3876-1.524-1.1684-.9652-.762zm-.8636.6096 2.6924 2.0828-1.7272 2.3876-.508.6604zm-.1524.1016.4064 4.1148.1016 1.016-2.3368.7112-1.3716.3556zm7.4676 1.9812-.9144 3.7084-.4572-3.556 1.778-1.8288zm.3556.3048v.1524l-.9652 2.5908.3048-1.3716.762-2.8956zm-14.4272 4.2672-1.9304-5.3848 3.5052-.3556zm.1016.1524 1.4732-5.4356.254 6.8072zm1.778-.3556-.1524-5.0292 1.4224 4.9276-1.2192 1.7272zm7.7216-4.318 2.794.1524-5.0292 2.8448zm3.2004 1.9304.254 2.032-5.6388-.8128 5.1816-2.9464zm-1.27 3.6576-.1524 7.6708-4.064-9.9568zm-9.5504.5588 5.0292-2.8448-2.3876 6.0452zm11.0236-2.0828-1.4224 1.4224-3.9624-2.1844 3.7084.508zm-8.7376 0 2.3368-.6604-4.4704 2.4892 1.1684-1.5748zm4.0132 6.6548-3.556-1.27.9652-2.3876 1.4732-3.6068zm2.9464 2.5908-.9652-.8636-1.8288-1.6256-1.1176-7.112zm-9.9568-4.572.6604-2.4384 1.9812 2.3876.508.6604-2.3368-.4572zm3.302.8128 1.2192 6.35-4.4704-7.0104zm-3.2512-.4572 2.4892 3.9116 2.0828 3.2512-3.6068.6604zm6.6548 7.9248-3.2512-7.4168 3.556 1.3208-.0508.9652zm-1.524-3.2004 1.4224 3.3528-1.8288-.9144-1.27-6.1976zm-5.1308-3.556.8128 6.604-.508-.254zm9.0932 8.1788-1.9304-7.4168 2.8956 2.5908zm-1.27-4.2672 1.1684 4.3688-2.2352-1.27.3048-5.9436zm2.286-.2032.6096 5.2832-1.5748-.6096.254-1.1684zm-5.3848 3.3528.1524 1.9304-3.81-2.2352 2.6416-.508.9144-.1524zm.3048 1.8288-.3048-2.7432 1.8288.9144zm-5.4864-.4572.7112-1.9812.3048.1524.254.1524zm2.4384.9144-2.4892-.6096 1.4224-1.8796.508 1.27zm.1524.0508-1.1176-2.54 3.7592 2.1844zm6.4008-.0508-3.4036-.3048 1.0668-1.27.508-.6096zm-1.524-2.032 1.9812 1.1176-.254.9144zm3.556 1.778-1.7272.254.3048-.8636.5588.254z"></path>
    <path d="m111.491 13.4032-1.016-7.4676.6604-3.3528v-.1016l-.2032-1.3208.3556-9.3472s.0508-.0508 0-.0508v-.0508l-.508-3.302c.0508 0 0-.0508 0-.0508l.5588-2.6416v-.0508l-.3556-3.2512c0-.0508 0-.0508-.0508-.0508l-1.8288-.3556h-.0508l-5.4356.6604-1.8796-.6604h-.0508l-.0508.0508.5588 4.2672c-.0508 0 0 .0508 0 .0508l-.7112 4.0132v.0508l.7112 2.6924-.5588 8.0264-.7112-1.7272v-.0508l-2.8956-3.7084c0-.0508 0-.0508-.0508-.0508l-2.1844-3.3528v-.0508l-2.7432-2.032-5.1308-7.2644-.1016-.2032-.0508-.0508-1.8796-.3556-4.1148-.3048h-.0508l-2.6924.3556c-.0508 0-.0508.0508-.0508.0508l-1.016 2.1336v.0508l1.0668 7.5184.3048 4.064-.8636 2.6924v.0508.0508l1.016 5.588-.8636 5.08v.0508l.508 5.4356h.0508l-.3556 1.1684v.0508l.0508.0508h2.1844l4.7752.3048h2.54.1016l-1.1684-5.6896 1.016-5.4356v-2.7432l-.2032-5.4356 2.1336 3.2512v.0508l2.032 1.524 2.54 5.08.0508.0508.1016.0508 4.9784 5.0292 2.2352 4.064h.0508l1.27.2032h.0508l3.4544.0508 4.064-.3556c.0508 0 .0508-.0508.0508-.0508l.3556-2.8956z" style="fill:#ffd500"></path>
    <path d="m111.491 13.4032-1.016-7.4676.6604-3.3528v-.1016l-.2032-1.3208.3556-9.3472s.0508-.0508 0-.0508v-.0508l-.508-3.302c.0508 0 0-.0508 0-.0508l.5588-2.6416v-.0508l-.3556-3.2512c0-.0508 0-.0508-.0508-.0508l-1.8288-.3556h-.0508l-5.4356.6604-1.8796-.6604h-.0508l-.0508.0508.5588 4.2672c-.0508 0 0 .0508 0 .0508l-.7112 4.0132v.0508l.7112 2.6924-.5588 8.0264-.7112-1.7272v-.0508l-2.8956-3.7084c0-.0508 0-.0508-.0508-.0508l-2.1844-3.3528v-.0508l-2.7432-2.032-5.1308-7.2644-.1016-.2032-.0508-.0508-1.8796-.3556-4.1148-.3048h-.0508l-2.6924.3556c-.0508 0-.0508.0508-.0508.0508l-1.016 2.1336v.0508l1.0668 7.5184.3048 4.064-.8636 2.6924v.0508.0508l1.016 5.588-.8636 5.08v.0508l.508 5.4356h.0508l-.3556 1.1684v.0508l.0508.0508h2.1844l4.7752.3048h2.54.1016l-1.1684-5.6896 1.016-5.4356v-2.7432l-.2032-5.4356 2.1336 3.2512v.0508l2.032 1.524 2.54 5.08.0508.0508.1016.0508 4.9784 5.0292 2.2352 4.064h.0508l1.27.2032h.0508l3.4544.0508 4.064-.3556c.0508 0 .0508-.0508.0508-.0508l.3556-2.8956z" style="fill:#ffd500"></path>
    <path d="m111.491 13.4032-1.016-7.4676.6604-3.3528v-.1016l-.2032-1.3208.3556-9.3472s.0508-.0508 0-.0508v-.0508l-.508-3.302c.0508 0 0-.0508 0-.0508l.5588-2.6416v-.0508l-.3556-3.2512c0-.0508 0-.0508-.0508-.0508l-1.8288-.3556h-.0508l-5.4356.6604-1.8796-.6604h-.0508l-.0508.0508.5588 4.2672c-.0508 0 0 .0508 0 .0508l-.7112 4.0132v.0508l.7112 2.6924-.5588 8.0264-.7112-1.7272v-.0508l-2.8956-3.7084c0-.0508 0-.0508-.0508-.0508l-2.1844-3.3528v-.0508l-2.7432-2.032-5.1308-7.2644-.1016-.2032-.0508-.0508-1.8796-.3556-4.1148-.3048h-.0508l-2.6924.3556c-.0508 0-.0508.0508-.0508.0508l-1.016 2.1336v.0508l1.0668 7.5184.3048 4.064-.8636 2.6924v.0508.0508l1.016 5.588-.8636 5.08v.0508l.508 5.4356h.0508l-.3556 1.1684v.0508l.0508.0508h2.1844l4.7752.3048h2.54.1016l-1.1684-5.6896 1.016-5.4356v-2.7432l-.2032-5.4356 2.1336 3.2512v.0508l2.032 1.524 2.54 5.08.0508.0508.1016.0508 4.9784 5.0292 2.2352 4.064h.0508l1.27.2032h.0508l3.4544.0508 4.064-.3556c.0508 0 .0508-.0508.0508-.0508l.3556-2.8956zm-32.258-30.9372 2.4892-.3556.6604 1.8288.2032.508zm6.4516-.0508-.254.2032-2.6924 1.8796-.4572-1.1684-.4572-1.2192zm18.034.3556 5.08-.6096-3.556 2.6924-.0508-.0508-.2032-.254zm5.4864-.6096 1.6764.3048.3048 2.9464-.1016-.2032zm.5588 1.1684 1.3716 2.286-5.6896-.7112 3.6068-2.7432zm-7.4676 2.8956-.508-4.0132 3.3528 2.7432zm1.524-2.4892-1.778-1.524 1.4732.5588 1.3208 1.778zm-16.3576-.9652-4.318 1.6256 2.7432-1.9304zm-8.3312-.254.4572.3048 3.048 1.8288-2.286 2.8956-.6096-2.4892zm-1.016 2.0828.9144-1.9812 1.1176 4.7244zm6.35-.5588 3.2004-1.1684.2032 2.9972.3048 4.572-5.334-5.7912zm8.8392 11.3284-4.9784-4.826-.4572-7.366zm-5.1816-11.938 4.826 6.8072.4572 5.0292-2.286-5.08zm-4.4704 5.7912-1.2192-.5588.3556-3.8608 1.524 2.7432 1.4732 2.6924zm-1.3716-.6096-1.8796-.9652 2.286-2.794-.254 2.4892zm-3.1496 3.1496-1.016-6.9088 2.1336 2.8448zm23.2156-5.4356 2.8448-1.27-.2032 1.6256-.2032 1.5748-1.2192-.9144zm-19.2532-1.27 4.9784 5.4356-2.032-.1524zm28.0924.6604-.508 2.5908-5.08-3.2004zm-4.826 3.2512-1.4224-.6096.3556-3.2004 3.302 4.7752zm4.2672-.5588-1.778 1.6256-3.4036-4.8768zm-8.3312-1.9304 1.2192.9144 1.2192 1.016-3.0988 1.8796zm-20.066 2.2352-2.9972 3.2004 1.1176-4.1148zm22.6568-.2032 3.81 1.6256-4.1656 3.556zm-.508 5.1816-2.7432-3.2512 2.3876-1.4732.762-.4572-.1524 2.0828zm5.7912-3.4544-.9144 3.2004-.3556-3.302 1.016-.9144.7112-.6096zm.5588-1.5748.4572 3.048-1.8288 1.9304.254-.9652zm-28.4988 1.9812.1524-1.8288 3.4544 1.6256-2.794 2.1336-1.016.762zm-.3556 2.7432-2.6416-1.27 2.794-2.9972.254-.254-.254 2.6924zm24.0792 2.3368 2.794-5.334.4064 3.4036zm0-.254-.1524.3048-1.27-1.9304 4.064-3.4544zm-10.3124-3.1496-.863599 1.3208-1.2192 1.8288-.4572-5.08zm-9.6012-1.8288 2.0828.1524-.8636 1.3208-.8128 1.3208-.254-1.6764zm-3.048 2.286 2.8448-2.1844-1.8796 5.4864-1.9304-2.5908zm1.1176 3.1496.3556-1.1176 1.4732-4.1148.4064 2.7432zm18.1864-2.8448-.6096-2.3876 2.54 2.9972-.8636-.254zm-13.97-2.3368 4.7752 4.6228-4.6228-2.5908v-.0508zm-1.778 2.6416 1.6256-2.5908.2032 1.9304zm24.638-1.4732-.3556 8.7884-1.524-6.858zm-32.004.3048 2.6416 1.27-2.3876 2.5908zm16.5608.1524 2.1336 3.2512h-4.2164zm-4.318 3.8608-3.302.9144.1524-2.1336.2032-2.1336 4.8768 2.794zm-3.1496-2.1844-.254 2.9464-1.016-2.286-.508-1.1684 1.27-.4572.6096-.2032zm13.5128 7.0104.508-7.8232 2.032.6604-1.1684 3.3528zm-14.6304-5.6896.8128 1.778-1.9812-.508-1.9304-.4572 2.3368-2.5908zm-6.2992-.0508 1.0668-1.7272.9652 1.27.9652 1.3208-5.1308 2.5908zm29.718 4.7244.2032.9144-4.8768-5.0292 3.302-1.9812zm-7.2644-2.7432 1.1684-3.302 1.27 1.8796-3.7592 5.1308zm-24.5872 1.2192.7112-2.2352 2.032-2.2352zm19.1516-2.7432-1.6256 3.4036-1.27-1.7272-1.3208-1.6764zm-9.6012 1.4732 5.1308-1.4224-.4572 2.4384zm12.446 2.1336-4.318-.1524 1.5748-3.4036zm-5.4864-1.3716.8636 1.1684-2.9972-.9144.4572-2.3876zm8.5852.7112 1.9812-2.6416.9652 4.5212-4.8768.762zm2.0828-2.6416 4.826 5.0292-3.8608-.508zm-18.034 1.1684-5.7404 2.032 1.8796-2.9972zm-7.4676.8128 3.3528-1.6764-1.8288 2.9972-3.1496-.4572zm9.906 2.4892-2.0828-3.2512 4.6736 1.0668zm-7.3152 1.8288-.9652-2.8956 5.7912-2.0828zm5.1816.4064-2.3876 1.778-.6604.508 2.8956-7.5692zm-.3048-5.2832-.762 2.032-2.1336 5.5372-1.9304-2.54 2.6416-2.7432zm8.2804 1.8288-3.7084 2.6924.254-1.4732.4064-2.1336 1.9304.6096zm-3.8608 2.7432-1.8796-1.4224 2.4892-2.1336-.3556 2.1336zm-9.4488.2032-4.064-3.2512 3.1496.4572.508 1.4732zm-4.1656-3.1496 4.2164 3.3528-1.1176 1.27-1.1684 1.3208zm22.1488.3556.762 1.8796-4.8768-1.9812zm-5.9436 7.5692-2.4384-4.8768 1.27-.9144 2.4384-1.8288zm5.08-1.524-3.5052-6.0452 5.1816 2.032-.9652 5.2324zm.6096 1.3716-5.588.3048 1.3208-7.6708 1.6256 2.794zm-20.9804-2.3876-.8128-4.7244 1.6764 5.2832zm26.0096-1.7272 1.27-2.0828 3.7084.4572zm-2.1336-1.524 3.2004-.508-1.2192 2.032-1.9812-.7112-1.4732-.5588zm3.4036 4.2164-1.27-2.5908 5.0292-1.5748zm3.9624-4.1656.2032 1.1684-3.6576 2.6416zm-8.382 2.1844-.6096-1.8796 3.556 1.27-2.286 2.5908zm-.1524.0508.6604 1.9812-2.1844 1.3208.9652-5.1308zm-17.3736 1.6764-.9652.7112-2.8448 2.1844 1.9304-5.4864zm26.0604-2.54-.6096 3.2004-3.302-.3556 3.4544-2.54zm-30.3784 2.5908 2.2352-2.4892-.9144 2.5908-.9144 2.6416zm5.4864-.762 2.0828-1.5748v2.5908l-2.9972-.3556zm20.6756 1.0668-1.3716 1.5748-1.7272 1.8796 1.6256-5.2324.2032-.762zm-3.6068.6096-.0508-.5588 2.2352-2.4384-.4064 1.27-1.4224 4.572zm-24.3332 2.9972.762-4.5212.2032.1524.7112.4572zm6.2484-3.9116 3.048.3556-3.4544 4.1656.3048-3.6068zm-2.2352 3.81-1.7272-.8128 3.81-2.8956-.3556 4.5212zm-3.8608.3556-.1524.1016 1.6764-4.064.3048 2.2352.0508.508zm27.94-3.7592 3.3528.3048-2.3876 3.0988-1.3716 1.778.3048-4.1656zm-18.7452.1016-1.016 5.1308-1.2192-.4572-1.2192-.508 1.9812-2.4384zm14.5288.508.3048-.508.3048 2.6416.1016.8636-3.0988.8128zm3.7084 4.6736-2.8448-1.6256 3.2004-3.556zm-5.7404-3.556.1016-.4064 2.0828-1.2192-1.9812 3.1496-.5588.8636zm9.144-.5588.508-.6604-.9144 4.826h-2.794zm.6096-.5588.9144 6.9088-1.8288-2.1844.3556-1.778zm-10.2616 3.81-5.0292-2.7432 5.4864-.3556zm-.2032 2.1844-4.7244-4.7244 4.8768 2.6416zm-16.8656-.1016.9144 1.6764-5.1816-4.1656 2.1336-1.3208zm-.4572-1.016-1.524-2.7432 3.4544 1.6256-.4064 3.8608zm23.1648 2.7432-5.4864-3.7084 1.1684-.3048 1.9304-.4572zm.2032 0-2.3876-4.4196 2.7432 1.5748zm-26.7208 1.1684-.508-5.2324 2.6416 2.0828 2.6416 2.1336zm4.9784-1.1684.254-2.54.1524-1.27 2.4384.9652zm21.4376.0508-5.6388-1.6256.2032-1.9812zm3.556-2.8448-3.1496 2.8448.4064-2.8448zm-22.0472 0 1.1176 5.4356-1.0668-.6604-2.9464-1.8288zm18.9484 2.9972 3.302-2.9464 1.27 4.1656.254.8636zm5.2324-.6604-.3048 2.5908-1.4732-4.6736zm-7.8232 3.0988-3.4036-4.064 5.7404 1.6764zm-1.3716-1.4224 1.2192 1.4732-1.1684-.2032-1.8288-3.4036zm-17.4752-.1524 1.016 1.6256-4.4704-.3048 2.9464-2.1336zm-1.0668-.5588-2.5908 1.8288-1.6764-1.0668 4.572-.9652zm27.178 1.8796-3.7592.3048-.9144-2.3876zm-7.112.3048.1016-.1016 2.1844-2.2352.3048.762.6096 1.5748zm-15.494 0h-2.3368l-1.4224-2.2352zm-7.366-.3556h-1.9304l.3048-1.016z"></path>
    <path d="m145.68-11.0824v-.0508l-.508-6.2992s0-.0508-.0508-.0508l-1.6764.3556-2.7432-.7112h-.0508l-7.4676.4572-8.3312-.6096h-.0508l-2.6416.762c-.0508-.0508-.0508-.0508-.1016 0l-2.9972-.762h-.0508-.0508l-3.2004.6096v.0508l-.7112 1.7272v.0508.0508l.6604 3.1496-.6604 3.2512v.0508l.0508.0508 5.2832.508 4.8768-.7112.3556 1.6764-.6604 4.3688v.0508l.6604 8.6868-1.016 1.9812v.0508.0508l.3556 6.096-.8128 2.286-.0508.0508v.0508.0508h.0508l2.6924.7112h.0508l2.8956-.3556h6.1468s.0508 0 .0508-.0508l-1.016-4.1148.508-6.2992-.508-1.8288.6604-1.8796v-4.7752-.0508l-.8636-5.8928.8128-1.1684 8.4836.6604h.0508.0508l1.1684-.508z" style="fill:#ffd500"></path>
    <path d="m145.68-11.0824v-.0508l-.508-6.2992s0-.0508-.0508-.0508l-1.6764.3556-2.7432-.7112h-.0508l-7.4676.4572-8.3312-.6096h-.0508l-2.6416.762c-.0508-.0508-.0508-.0508-.1016 0l-2.9972-.762h-.0508-.0508l-3.2004.6096v.0508l-.7112 1.7272v.0508.0508l.6604 3.1496-.6604 3.2512v.0508l.0508.0508 5.2832.508 4.8768-.7112.3556 1.6764-.6604 4.3688v.0508l.6604 8.6868-1.016 1.9812v.0508.0508l.3556 6.096-.8128 2.286-.0508.0508v.0508.0508h.0508l2.6924.7112h.0508l2.8956-.3556h6.1468s.0508 0 .0508-.0508l-1.016-4.1148.508-6.2992-.508-1.8288.6604-1.8796v-4.7752-.0508l-.8636-5.8928.8128-1.1684 8.4836.6604h.0508.0508l1.1684-.508zm-23.6728-6.096-3.8608 3.8608.7112-3.6576.2032-.9144zm.3556 0 2.4384-.7112 1.8796 1.778zm2.6416-.7112 7.7216.6096-5.842 1.2192zm-9.8044 2.1844.6096-1.5748 2.8956-.5588zm2.7432 2.54-2.7432-2.3876 3.7084-2.2352zm25.1968-3.9116-4.318 1.0668.3048-.3048 1.5748-1.3716zm-2.6416-.6096-1.8796 1.7272-5.0292-1.3208zm2.9972.6604 1.5748-.3556.4572 5.842-.1016-.3556zm-10.1092-.1524 3.0988.762 2.032.5588-2.54 2.4384-.0508.0508zm-6.35 1.2192 5.8928-1.2192-3.302 3.048zm5.588-.7112.4572-.4572-.4572 2.2352-2.6924.7112zm.1016 1.778.1016-.5588.4064-1.6764 2.4892 3.7084zm-14.4272 1.6256 3.81-3.81 1.5748 1.4224zm5.5372-2.4384-1.524-1.3716 4.1148 1.0668zm17.4752 1.9304-.8128-.7112-1.7272-1.3716 4.4704-1.1176zm3.2004 1.9304-3.048-1.8796 1.9304-3.2512 2.1336 5.7404zm-15.24-2.3368-5.08-1.4732 2.6416-.254zm11.8872.4572-5.08.4064 2.54-2.4892 1.9304 1.5748zm-14.2748 1.2192-2.8956-3.048 5.4356 1.524zm-3.048-3.048 2.8448 3.048-4.4704-.3048zm-1.778 2.7432-3.81-.3048 5.3848-2.3876-.5588 1.016zm-6.858-2.54 1.1684.9652 1.524 1.3208-.6604.2032-1.4224.4572zm19.1516 3.7084.9652 1.778-3.302-2.4384-2.286-1.7272 2.8956-.762zm1.3716-.7112-.2032 2.54-1.3716-2.4384-1.3208-2.4384 1.4732.7112 1.524.762zm-.508 2.5908-8.128-2.6924 2.54-1.524 3.4544 2.5908zm5.9436-3.8608-2.54 2.2352-2.54-1.8288zm0 3.3528-2.3876-1.0668 2.5908-2.2352 2.5908 4.5212zm3.6576.254-.7112.9652-2.54-4.4196 1.524.9144 2.4384 1.4732zm-8.9916.2032-.2032.1016.2032-2.0828.1524-1.3716 2.54 1.8288zm-16.0528-2.1336-1.4732-1.0668 3.7084.3556-.9144 1.6256zm-3.9624 1.9812 2.2352-2.9972 2.8956 2.032-5.6896 1.7272zm-.6096.6096.6604-2.8956.9652-.3556 1.016-.3556zm11.5824-2.9972-1.4732 2.9972-3.048-3.302zm-1.6764 2.9464-3.9116-1.524.9144-1.7272zm4.318.254-3.9624-.1524 1.4224-2.9972 1.3208 1.5748zm5.7404-.4572-5.5372.4572-1.6764-2.0828-.8636-1.0668zm8.5344.6096-7.9248-.6096 1.9304-1.1176.9652-.508zm-22.9108-1.0668-.4572 1.4224-4.8768-.4572 5.5372-1.7272zm4.318.8128-4.572.6096.4064-1.4732.2032-.7112zm19.9644-.9144.4572-.6604-.3048 1.3716-.9144.4064zm-9.652.6604-.7112 1.0668-4.4196-.6096zm-9.9568.3048 4.0132.2032-1.4224 3.7084zm10.0076 6.604-5.7404-6.4008 4.9276.6604zm-9.7536-4.9784-.254-1.3716 2.2352 3.3528zm5.9944 3.6576-2.3876-.8128-1.1684-.4572 1.4224-3.7084zm3.6068 1.3208-3.4544-1.27-2.0828-4.9276zm-9.5504-4.6228 3.5052 7.4168-3.2004-.9652zm2.2352 2.0828 1.2192 4.826-3.302-6.858zm-2.0828 4.0132-.8636-2.032.6096-3.7084.1016 2.286zm5.7912-1.6764-.3048 3.8608-1.6256-2.9972-1.5748-3.0988 3.556 1.3208zm-2.2352 3.048-1.2192-4.8768 3.048 5.7912zm6.0452-2.6416v4.5212l-3.556-5.7404zm-.1524 4.6228-2.8448-.7112-.9652-.254.3048-4.8768.6096 1.016zm-9.7028 2.4384-.5588-7.4168.8636 2.032zm4.9784-.4064-4.4196-4.8768 3.1496.9652zm-1.2192 0-2.3368-.4572-.9652-4.318 4.4704 4.9784zm-3.3528-4.5212.9144 4.1148-1.2192 1.4732zm4.7752 4.3688-.0508.2032-1.27-3.9116 1.8796.9652zm.6604-2.6924 3.2004 2.7432-3.8608.3556.2032-1.016zm3.9624.9652-.6096 1.7272-.6096-.508-2.4892-2.1336zm-9.652 3.0988 1.2192-1.524 3.4544.6096zm9.4996.508-4.2164-1.3716 3.7592-.3556zm-4.6736-1.3208-2.5908 3.556-2.2352-2.5908zm4.6736 1.4732-.4572 6.0452-2.5908-4.9784-1.3208-2.54zm-3.6068 3.4544-3.556-1.3208 2.5908-3.5052zm-.762-4.6228 3.6576 7.112-2.7432-2.4384zm-5.2832.7112 2.1844 2.54-1.1684-.254-1.9304-.4064zm2.3368 2.6924.6096 2.1336.7112 2.6416-4.5212-5.4356zm-3.2512-.508 4.5212 5.4864-3.556.7112zm5.0292 3.4544-1.5748-2.8956 3.556 1.3208-.3556 4.4704zm1.524 2.9972-1.8288-.9652-1.2192-4.572.1524.254zm-6.2484-.6096-.254-4.6736.762 4.9784zm8.8392 1.8288-1.9304-5.6896 2.8448 2.5908zm-1.3208-.5588-1.016-.5588.3048-4.4196 1.8796 5.6388zm2.286-2.286.9652 3.7084-.6096-.2032-1.27-.4064zm-4.0132 2.3876-1.016 1.27-.2032-1.7272-.1524-1.1176 1.8796.9652zm-1.1684 1.3208-.7112-.4064-3.0988-1.8796 3.5052-.6096zm-5.334-.6604.6604-1.8796.5588.254-.4064.5588zm2.4384 1.016-2.54-.6604 1.4224-1.8796.5588 1.27zm.1524 0-.8128-1.778-.3048-.7112 3.7592 2.1844zm5.9436-.762-1.6764.4064.2032-1.27.1016-.5588.9652.508 1.1684.7112zm-2.9464.4572 1.0668-1.3208.3556-.4572v.254l-.254 1.524zm5.588 0h-3.9116l2.2352-.5588z"></path>
    <path transform="matrix(.264583 0 0 .264583 8.2482 -18.643)" d="m547.842 3.03906-10.1758 1.34375c-.192.192-.38341.193359-.19141.193359l-2.6875 6.91211v.191407.191406l2.87891 33.2168-2.87891 12.8633 3.26367 9.02344c-.192 0-.1914.00136-.1914.19336l-3.64844 29.9512v.191406.193359l3.26367 7.48828c-.192.192-.192.1914 0 .1914l-4.60742 20.3516v.38476l2.49609 6.91211c.192.192.19081.19141.38281.19141h9.40821l18.0488 1.34375 12.4785-1.34375c.192 0 .19336-.19141.19336-.19141l-.19336-.57617-4.41602-15.5527 1.34571-24.1914 15.7441 1.91992 21.3106 32.0644 2.49609 7.10352h.19336l27.0703.76758 10.9453-.76758h3.26368.1914l-4.99219-12.4805-1.53515-3.26367-10.1758-13.6328-14.209-15.7422 8.83203-4.41602s.19336-.001359.19336-.193359l14.7832-15.9355v-.191406l3.83984-27.6484-10.9434-22.0801c0-.192-.00136-.191406-.19336-.191406l-20.543-11.5215-20.5449-2.49609h-.19141c0-.192-.1914 0-.1914 0h-22.8477s-.19336-.192-.19336 0h-.1914l-11.1367 1.91992s-.19141-.192-.19141 0l-15.5527-2.6875zm41.2383 30.1777 11.1191 2.19726c6.11544 1.2089 11.1317 2.20876 11.1465 2.2207.0148.01194.92489 3.82386 2.02344 8.47266 1.40259 5.93538 1.98227 8.49334 1.94531 8.58984-.029.07559-1.36118 1.69719-2.96093 3.60352l-2.91016 3.4668-6.83594 3.03906h-4.16992c-2.5053 0-5.20472.039476-6.76367.097656-1.42696.05325-5.09658.183986-8.1543.291015-3.05772.107031-6.72021.237967-8.14062.291016-1.42041.05305-2.75054.095703-2.95508.095703h-.3711l.0293-.30664c.0163-.168885.28013-5.65676.58789-12.1953l.56055-11.8887-.29297-3.30273c-.16113-1.81684-.28724-3.30877-.28125-3.31641.006-.0076 2.71464-.236267 6.01953-.50586s6.99816-.570746 8.20703-.669922l2.19727-.179687z" style="fill:#ffd500;stroke-width:1"></path>
    <path d="m179.919 13.4032-.4064-.8636-2.6924-3.6068-3.75919-4.1656 2.3368-1.1684s.0508 0 .0508-.0508l3.91159-4.2164v-.0508l1.016-7.3152-2.8956-5.842c0-.0508 0-.0508-.0508-.0508l-5.43559-3.048-5.4356-.6604h-.0508c0-.0508-.0508 0-.0508 0h-6.0452s-.0508-.0508-.0508 0h-.0508l-2.9464.508s-.0508-.0508-.0508 0l-4.1148-.7112-2.6924.3556c-.0508.0508-.1016.0508-.0508.0508l-.7112 1.8288v.0508.0508l.762 8.7884-.762 3.4036.8636 2.3876c-.0508 0-.0508 0-.0508.0508l-.9652 7.9248v.0508.0508l.8636 1.9812c-.0508.0508-.0508.0508 0 .0508l-1.2192 5.3848v.1016l.6604 1.8288c.0508.0508.0508.0508.1016.0508h2.4892l4.7752.3556 3.302-.3556c.0508 0 .0508-.0508.0508-.0508l-.0508-.1524-1.1684-4.1148.3556-6.4008 4.1656.508 5.6388 8.4836.6604 1.8796h.0508l7.16279.2032 2.8956-.2032h.8636.0508zm-29.2608-30.7848 2.4892-.3048.6604 1.7272.254.6096zm2.6416-.3048 3.8608.6096-2.9464 1.778-.6604-1.778zm7.3152.1524h5.842l-.5588 3.0988zm-.3556 0-.1524 1.1684-.3048 2.3876-2.3876-3.048zm6.35 0 5.2324.6604-1.27 2.4892-1.3208 2.5908zm-6.1976.0508 5.3848 3.0988-5.842.4572zm8.636 5.588-2.9972-2.4384.508-3.048zm-16.1036-4.0132 1.1684.7112-2.3368 2.8956-1.1684-4.9784zm-3.048.3556.5588-1.6764 1.1684 4.6736zm8.1788-.4572 1.5748 2.032-2.6416-.6096-2.6416-.6604 2.9464-1.778zm19.1516 2.1336-3.86079 1.8288-.3048-1.1684-.9652-3.5052 2.5908 1.4224zm-3.96239 1.8796-3.048 3.048 1.7272-7.6708zm-3.2004 2.9464-.762-2.54 2.4384-4.7244zm-20.1676-6.1976 1.8288 3.1496-1.1684 5.0292zm4.4704.1524 5.4356 1.3208-.0508 1.3208-.1016 2.7432zm1.1176 4.7244-1.6256-.8128.4064-3.81 1.4732 2.6924 1.524 2.7432zm-1.3716-4.572-.254 2.4384-.1016 1.27-1.8796-.9144zm5.4356 5.2832-2.0828.2032-2.9464-5.334zm.3048-2.7432.0508-1.3716 5.842-.4572-5.9944 4.4704zm4.7244 1.5748 1.4224-3.4036 3.0988 2.5908-4.8768 1.6256zm-4.6736 1.1684 5.8928-4.4196-1.7272 4.1148zm17.3736-4.0132-2.33679 4.7244-.0508.1016-.1016-.1524-1.3716-2.9464zm.0508.1524-.8128 7.5184-1.57479-2.7432zm.2032 0 2.7432 5.4356-1.4224 2.5908zm1.1684 8.128-1.3716-.3556-.7112-.1524.8128-7.4676zm-27.5844-3.7592.7112-2.8956 1.8796.9652-3.048 4.064zm22.1488-2.6924.3048 2.4384.508 4.8768-3.9116-4.2164zm.254.4572 1.27 2.6924-.254 1.7272-.3556 2.2352-.254-2.1844-.508-4.7244zm-9.0932 1.4224 1.524-.508 3.2512-1.0668.8128 2.7432zm-10.7696 1.2192.2032-2.286 3.4544 1.6256-1.9304 1.4732-1.9304 1.4224zm-2.9972 1.9812.762-1.016 2.2352-3.0988-.3048 4.4704zm17.018 5.2832h-2.3368l-5.7404.2032.3048-6.4008v-.0508-.0508l-.1524-1.7272 4.3688-.3556 5.8928 1.1684 1.0668 4.5212-1.5748 1.8796zm-10.16-7.874 2.0828-.1524-1.7272 2.9464zm2.286 1.6256-.9144.6096-.8636.5588.4572-.8128 1.1684-2.032zm-5.1308 2.9972-1.1684-1.6256 3.81-2.8448-1.9304 5.4356zm2.6416-1.1176-1.7272 1.9304 1.8288-5.1816.3556 2.7432zm12.9032-2.6924 3.81 4.1656-2.8448.2032zm4.3688 2.032.3048-1.9812.9144 1.4732.66039 1.1684-2.18439 1.3716zm5.63879-1.2192-.9144 6.5024-.4572-4.064zm-20.7264 6.1468-.508-1.4224-1.0668-3.302 1.8796-1.27zm-7.5692-3.6068-2.032 1.7272.7112-3.1496 2.6416.3048zm1.4732-1.016.9652 1.27.9652 1.3208-4.5212 2.5908zm5.9436 4.7752.0508.0508-3.9116-2.2352 2.286-2.5908zm-9.4488-1.8288 3.302-2.8448-2.54 5.08zm28.8036-2.032-.8128 1.4732-1.3716 2.54.0508-3.1496.0508-1.3208 1.2192.254zm-2.2352 1.0668-.1016 3.0988-2.08279-3.1496 1.5748-1.016.66039-.4572zm.0508 3.2004 1.2192-2.286 1.016-1.778.4572 4.318zm-5.18159-3.048 2.8448-.1524 2.03199 3.048zm4.0132 7.4168-4.0132-7.2644 5.02919 2.9972zm-4.3688-7.2136-.6096 2.032-.9652 3.048.2032-3.4544zm1.8796 8.382-3.4544-2.794.8128-2.6924.8636-2.8956.9144 4.1656zm.2032.1524-1.778-8.382 4.0132 7.2136zm-13.7668-5.9436-5.7912.8128 1.9304-3.048zm-4.064-2.1844-1.0668 1.7272-.762 1.27-2.54-.4572zm14.1732 1.3208-.1524 3.6576-1.4732-2.8956zm-4.3688 2.9464.3556-2.1336h2.2352l-3.5052 7.1628zm-.254-2.1336-.6604.2032-2.3876.6604-1.7272-.6604-.2032-.0508zm2.9464.0508 1.524 2.9972-3.2512 2.7432-1.8288 1.524zm-7.3152 4.826-.6096-.508 5.3848-4.318-.762 4.4704-.508 2.9464zm-.508-.762 1.8796-3.0988.9652-.3048 2.2352-.6096zm-6.4008-3.1496 5.7912-.762-4.826 3.7084zm6.9088 2.0828-.6604 1.1176-.1016-2.3876-.0508-1.5748 1.016.3556 1.016.4064zm-5.8928.9652 4.7752-3.7084-2.8448 6.2992zm2.1336 2.4892 2.8448-6.096.1524 3.8608zm22.5044-5.842-3.65759 4.0132.0508-.254.96519-3.9624zm-24.892 3.1496-3.3528-3.2512 2.032.3048.4064.1016zm-3.2512-2.0828-.254-1.1176.4064.3556 3.1496 3.048-1.2192 1.4224-1.0668 1.1176zm-1.3208 6.604.9652-7.5692.8636 4.064.4064 1.8796zm23.114-2.3368-8.5852 1.4732 5.08-4.318zm-20.2184 3.4544 1.8796-5.334 1.2192 1.7272.6604.8636-3.81 2.9464zm1.6764-5.1816-1.8288 5.1816-.3556-2.6924zm5.3848.2032v2.54l-2.9972-.3556zm4.1148 3.048-4.0132-.508v-2.54zm9.0424-1.3716-2.5908 2.5908-5.842-1.1176zm.254 2.6416-2.6416-.0508 2.4892-2.4892zm0-2.54 3.50519 3.9116-3.40359-1.3716zm-14.3256 1.9304-2.5908 3.0988.3556-4.4704 3.048.3556zm-2.6416 2.0828-.1016 1.1176-3.4544-1.5748 3.8608-2.9464zm-6.4008-1.778 2.1336-1.524-1.016 2.54-.3048.8128zm1.3716.762.8636-2.1844.3556 2.6924-.4064.1524-1.27.4572zm7.2136 3.2004-2.1336-.9652.6604-.8128 2.6924-3.302zm5.9436-4.7244 5.9944 1.1176.6096 3.2512zm-5.842 4.7752 1.2192-4.7752-.3048 5.6896zm5.8928-4.6228 6.604 4.3688-.3048 3.1496zm5.3848 8.1788-5.08-7.62 2.032 2.3876 3.9116 4.6736zm.6604-7.2136 2.6924.0508-2.032 3.1496-.4572-2.1336zm2.8956.1016 3.50519 1.4224-1.01599 3.2512-.7112 2.3368zm1.6256 6.858.0508.2032-3.8608-3.81 1.6764-2.6416.3556-.5588zm-19.8628-1.3208.4064.762-4.7752-4.7244 1.778-.6604zm-.9144-1.8288-1.524-2.6924 1.524.6604 1.9304.9144-.1016.762-.3048 3.0988zm25.2984 1.2192-4.26719 2.1844 1.72719-5.588zm-29.972 2.032 1.1176-5.2832 4.9784 4.9276zm8.2296-2.6416-1.8796 2.1336.3556-3.81 1.8796.8636.254.1016zm15.7988 2.6416-2.6924-.4572.2032-2.6924.0508-.4064.1016.1016 3.7084 3.6576zm-14.8336-2.6416 1.8288 4.4704-4.6228-2.1844 1.27-1.4732 1.27-1.4224zm.7112.3556.8636 2.9972-1.6256-3.7592zm20.1676.3556.3048.7112-2.794.8636-1.26999.3556zm-.0508 1.3208-1.9812 2.794-2.28599-1.8796 4.57199-1.3208zm-1.8288 2.794 1.778-2.4892.4064-.6096.4572 2.9464zm3.5052-.1524h-.7112l-.1016-.7112-.254-1.9304zm-10.414-2.3368 4.064.6096-4.4196 1.6764zm-20.6248.762-.5588-.3556 5.8928-.3556-2.8448 2.0828zm20.1676 1.3716-.508-1.5748.7112-.4064.1524-.1016-.1524.762zm-17.526.0508 2.9464-2.0828 1.5748 2.3876zm4.6736.3048-1.524-2.3368 4.4704 2.032zm-5.08-.3048h-2.286l-.6096-1.6764zm24.9936.3048-6.70559-.1524 4.4196-1.6764z"></path>
    <path d="m200.391-18.5-5.84179 1.16992-1.82813.203125h-.0508c-.0508 0-.0508-1.9e-5-.0508.05078l-4.36914 4.52148-.96484.203126c-.0508-.0508-.0508-1e-6-.10157 0l-1.77734 4.0625-1.93164 4.52148c-.0508.0508 0 .050781 0 .050781l-.20313 6.14648 1.92969 6.75781.0508.050781 1.98243 1.01562 4.36914 4.57227h.0508l3.14843.8125 4.06446 1.47266 3.86133.101563h.1016l3.75976-.964844h.0508l3.96094-1.42188 6.65625-6.0957c.0508-.0508.0508-.101562.0508-.101563l-.15234-.712891.86328-1.21875v-.0507798l1.32023-4.92773v-.101562l-.66015-8.48242v-1.16992c0-.0508 2e-5-.050781-.0508-.050781l-6.09571-6.6543h-.0508l-1.27148-.558594h-.0508l-7.26368-2.79492-.1016-.10156-2.8457.408203-.45693-.712894zm0 .101562.40626.611329-5.0293.355468zm3.09961.408204-2.94726 2.03125-.20313.152343.60938-1.87891.4082-.05078zm.25391 0 .45703 1.11719-2.6914.8125-.91602.253906zm.35547.05078 6.34961 2.48828-4.31836-.8125zm-.15234.05078 1.77734 1.42188.10156.101563-1.47265-.507813zm-3.15039.253906-.40626 1.26953-.20312.660156-5.18164-1.52344 2.0332-.152343zm-6.24805.457032.86328.558593.61133.40625-2.99805-.863281zm.45703.152343 4.57226 1.26953-3.09765-.304688-.86524-.558594zm-2.33594.05078 2.1836 4.62305-6.50196-.203126zm.15235 0 3.50585 1.01562-1.37304 3.50586zm11.4805.253906.5586.203125.91406.304687-4.87695.457032zm1.67579.609375-.0508.152344-2.03125 3.75976-3.45507-3.35352zm.15234.05078 1.06836 1.06641-.60938.507813-2.38867 2.0332 1.26953-2.43945zm.20312 0 4.2168.8125-3.19922.203125-.55859-.558594zm-9.75195.152344 3.60547.355469-.15234.964843-.5586 4.06445zm-.10156.05078 2.89453 5.48633-4.31836-1.92969 1.06836-2.74414zm3.80859.355469 3.50586 3.4043-4.2168 1.72656.25391-2.03125zm10.7188.355469-.40625.8125-2.84375-.609375zm.20313 0 1.2207.457031-.30469 1.01562-.50976 2.0332zm-.10156.152343.35546 2.99805-.71093-2.23633zm-3.70704.101563 3.09766.660156-2.58984 1.62695-.25391-1.11914zm-.10156.05078.50781 2.28711-3.55664 2.74219zm-.2539.152344-1.98243 3.30273-.96484 1.625-.10156-1.82813v-.457031l2.69336-2.33789zm5.48632.101562 5.8418 6.34961-6.70703-3.04687.25586-1.11719zm-1.93164.40625.60938 1.88086.2539.914062-3.45312-1.11719zm-22.4023 1.72852 2.94726 2.89453-3.75976-2.74219zm.20312.05078 6.40039.152344-2.94531 3.19922zm19.5586 0 3.45312 1.16797-1.52344 1.06641-1.52343 1.01563-.15235-1.06641zm-.10156.05078.40624 3.19922-4.01367-.457031zm-20.5742.152343 4.41992 3.19922-6.14649.660156zm7.77148 0 4.31836 1.92969-3.86133 2.23437zm-.15234.05078.45703 4.0625-3.35156-.863281 2.53906-2.79297zm8.9414.152344.10157 1.57422.0508.8125-4.2168-.710937zm7.72071.863282 3.30273 6.55273-6.45117-4.4707zm.20312.101562 6.70703 4.16602-3.45508 2.38672-3.19921-6.40039zm.71289.253906 6.0957 2.79297v1.01758zm-12.9551.558594 4.47071.710938 3.75976 2.49023 2.38672 4.82422v.052734l.20313 3.45312-1.57422 3.60742-3.35352 2.38672v.050781l-3.14844 1.42383-2.8457-.355469-4.11523-2.38867-2.89453-4.67383.45703-4.01367v-.101562l1.0664-2.89453 1.57422-2.28711v-.050781zm4.77539.761719 3.91211.457042-.50781 1.88086zm-12.4961.558594.91406 6.0957-7.06054-5.38477zm16.6113 0 6.45117 4.52148-4.62305 2.08203zm-16.4082.050781.55859.152344 2.74219.8125-1.42188 2.13477zm16.3066 0 1.47265 5.2832.20313.8125-2.13281-4.26562zm-16.3066.203125 1.77734 2.99805-.96484 2.69141-.5586-3.85938zm-6.50196.558594.8125 1.67773.91407 1.82812-3.60743.761719zm.20313.101562 6.70508 5.13086-5.0293-1.72656zm32.8164 1.27148-.8125 4.36719-2.59179-2.03125 1.11718-.761719zm.0508.355469.60938 7.56836-1.37109-3.45508zm-31.3945 1.92969-3.81054 6.6543.20312-5.89258.91406-.203125zm.30469 0 5.23242 1.82812-2.13476 4.11523-.15235.253906zm27.5332.101562 2.5918 2.03125h-7.0625zm-27.7363.203125 1.16796 7.51953-2.58984-.916016zm-.15235.050781-1.42187 6.55273-2.28711-.101563zm.35547 0 2.89453 5.94336-1.77734 1.47461-.66016-4.41992zm5.18164 1.77734-.40625 3.55664-1.67773.507812zm17.8809.154297h6.96094l-2.13477 1.72656zm-.20312.050781 4.92773 1.72656-2.69141 1.87891-1.67773-2.74219zm7.26562.050781-.40625 1.82812-.4082-.0507813-1.21875-.152344zm.15234 0 1.3711 3.45312-.66016-.558594-1.11718-1.01562.30468-1.37109zm-7.51953.050781 1.47266 2.38672.76367 1.16797-1.32226-.203125-.66018-.10155zm5.23243 1.67578 1.67773.253906-.76367 2.23437-.35547 1.06836zm-.10157.0507813.25391 1.47266.30469 2.18555-3.25-1.7793 1.37109-.914062zm1.93164.253906 1.72657 1.57422.15234.101563-.45703.253906-2.5918 1.42383zm-6.85937 1.37109 1.98242.304688-3.45508 3.04883zm-18.1856.050781 1.625 2.5918 1.06641 1.77734-4.41992-3.86133.61132-.152344zm20.3203.304688 1.67579.914062 1.625.865234-6.09571 3.70703zm6.60352.101562-1.26953 4.67383-.50781-.863281-1.27149-2.08203 1.37305-.814453zm-6.85742.101562-1.27149 2.54102-1.37109 2.69141-.60938-1.625-.20312-.558594zm-21.8965.050781 1.16993 1.7793 2.33593 3.60547-5.2832-3.85938zm.30664.253906.20313.203125 4.21484 3.6582-.91406 1.42188zm-7.26562.304688 2.23633.050781 3.19922 6.85938zm2.43945.101562 2.58985.916016.0508.761719.50781 5.13086-2.08203-4.52148zm-2.43945.101562 5.58789 7.0625-1.11719-.203125-2.64258-.507812zm32.4101.96681-3.40235 6.29883-.05078-.101562-2.64258-2.49023zm.15234 0 1.01562 4.16406-4.41796 2.08398zm-27.3809.050781 2.89648 3.80859 1.98047 2.5918-4.26758-.304688zm.25391.101562 5.2832 3.80859-.15234.609375-.40625 1.7793-2.9961-3.91211zm27.2793.050781 1.67774 2.74219-.71094 1.11719zm-7.41601 1.16797.40625 1.11719.35547 1.11719h-3.86133zm-13.5137 1.11719 5.48632 4.87695-6.40039-3.45508zm.60937.355469 3.45508 1.93164v.050781l1.57422 2.48828zm9.65234.863281h3.9629l-5.0293 3.75977zm4.2168.101562 2.64258 2.5918-1.62695 4.01367-.15235.40625-.55859-4.36914zm-4.62305.050781-3.75781 3.55664.96485-2.23438zm.25391 0-.35547 1.2207-.71094 2.4375-2.99609.05078zm4.11524 0-3.04883 6.25-1.98047-2.49024zm.15234.101562.86328 7.0625-3.91016.507813 1.72657-4.36914zm-15.3418.101562 6.45117 3.45508-7.00976-1.06641.2539-1.21875zm22.7578.253906.1543.560547-3.81055 1.16797zm-17.5762.560547 2.69336.304688-1.01758 2.33594-1.32031-2.08203zm17.4746.253906-6.24805 5.74023 1.83008-4.41992zm-8.02539.101563-2.38672 5.99414-.0527-.761718v-.203125zm-23.2148.40625 1.8789.355469 1.21875.203125-1.57421.203124zm3.45312.609375 2.23633 4.4707-4.01367-4.16602zm.15235 0 4.31836.304687 1.0664 5.13086zm.15234.304687 5.13086 5.18164-2.89453-.710938zm4.4707.05078 7.11133 1.11719-2.64062 2.79492-.0508.05078-.35547-.304687zm-.15234.152343.25391.304688 4.62304 6.0957-3.81054-1.32031zm.40625.304688 4.11523 3.60742.50782 2.4375zm9.90625.609375-5.43555 2.69336 1.01563-1.06836 1.52343-1.57422zm.25391 0 1.98046 2.49023-7.56836.40625zm2.03125 2.64258v1.21875l-7.11133-.863281zm-7.92383.457031 4.06445 2.64062-3.55664-.101562zm.20312 0 7.51758.863281-3.45312 1.77734zm11.3789.457031-3.40235 1.16797-.10156-.507812v-.203125l2.03125-.304688zm-3.6582.457032.15429.761718-.81445.203125-2.28516.609375z" xlink:href="#a"></path>
    <path transform="matrix(.264583 0 0 .264583 8.2482 -18.643)" d="m726.211.542969-22.0801 4.41602-6.91211.767578h-.19336c-.192 0-.19141.00136-.19141.193359l-16.5117 17.0879-3.64844.767579c-.192-.192-.19081 0-.38281 0l-6.72071 15.3594-7.29687 17.0879c-.192.192 0 .19336 0 .19336l-.76758 23.2324 7.29687 25.5352.19141.19141 7.48828 3.83984 16.5117 17.2812h.19141l11.9043 3.07227 15.3594 5.56641 14.5938.38476h.38281l14.209-3.64844h.1914l14.9766-5.375 25.1524-23.041c.192-.192.1914-.38281.1914-.38281l-.57617-2.68946 3.26367-4.60742v-.191407l4.99219-18.625v-.382812l-2.49609-32.0645v-4.41602c0-.192.00059-.191406-.19141-.191406l-23.041-25.1523h-.19141l-4.80078-2.11328h-.19141l-27.4551-10.5586-.19336-.193359-.1914-.191406-10.752 1.53711-1.72852-2.68945zm-3.26614 31.2967 17.2403 2.6285 8.0598 5.57319 5.8053 3.89418 3.90585 7.48175 5.34036 10.6543c.32806.654491.43265 5.48094.46217 9.81322l.0836 3.53873-1.06655 2.72834c-.58773 1.4222-2.03406 4.48314-2.99262 6.65524l-1.89283 4.24842-12.2841 9.10961-12.6759 5.8664-10.4225-1.51615c-1.92154-1.05166-15.5004-9.23625-15.5004-9.23625l-5.82012-9.00928-5.69565-8.46366 1.00041-6.34863.93661-9.37515 4.11979-10.9471 6.22665-9.0427z" style="fill:#ffd500;stroke-width:1"></path>
    <path id="a" d="m219.34 1.61762-.6604-8.4836v-1.1684c0-.0508 0-.0508-.0508-.0508l-6.096-6.6548h-.0508l-1.27-.5588h-.0508l-7.2644-2.794-.1016-.1016-2.8448.4064-.4572-.7112h-.1016l-5.842 1.1684-1.8288.2032h-.0508c-.0508 0-.0508 0-.0508.0508l-4.3688 4.5212-.9652.2032c-.0508-.0508-.0508 0-.1016 0l-1.778 4.064-1.9304 4.5212c-.0508.0508 0 .0508 0 .0508l-.2032 6.1468 1.9304 6.7564.0508.0508 1.9812 1.016 4.3688 4.572h.0508l3.1496.8128 4.064 1.4732 3.8608.1016h.1016l3.7592-.9652h.0508l3.9624-1.4224 6.6548-6.096c.0508-.0508.0508-.1016.0508-.1016l-.1524-.7112.8636-1.2192v-.0508l1.3208-4.9276v-.0508zm-23.5712-19.05 4.6228-.9652.4064.6096zm8.4328.5588-2.6924.8128-.9144.254 3.1496-2.1844zm-2.8448-.8636 2.1336-.254-2.9464 2.032-.2032.1524.6096-1.8796zm4.7752 1.4732-2.032-1.6764 6.35 2.4892zm-.4064-.2032.1016.1016-1.4732-.508-.4064-1.016zm-8.6868-.9144 3.7592-.254-.4064 1.27-.2032.6604-5.1816-1.524zm-4.0132.3048 1.524-.1016.8636.5588.6096.4064zm2.5908.4572-.6096-.4064 4.572 1.27-3.0988-.3048zm-7.2644 4.064 4.318-4.4196 2.1844 4.6228zm4.4704-4.4196 3.5052 1.016-1.3716 3.5052zm12.0396.4572.9144.3048-4.8768.4572 3.4036-.9652zm1.1176.4064-.0508.1524-2.032 3.7592-3.4544-3.3528zm-.508 1.2192.6604-1.1684 1.0668 1.0668-.6096.508-2.3876 2.032zm5.08-.3556-3.2004.2032-1.016-1.016zm-10.3632-.3048-.1524.9652-.5588 4.064-2.8956-5.3848zm-4.064.508.3556-.8128 2.8956 5.4864-4.318-1.9304zm3.7084 2.6416.4572-3.0988 3.5052 3.4036-4.2164 1.7272zm12.5984-2.286-.3048 1.016-.508 2.032-.4064-3.5052zm-1.8288.3556-2.8448-.6096 3.2512-.2032zm.8636 2.3368-.7112-2.2352.3556-.762zm-3.81-1.7272-.254-1.1684 3.0988.6604-2.5908 1.6256zm-3.4036 3.9116 3.048-5.0292.508 2.286zm2.4384-4.572.3556-.3048-1.9812 3.302-.9652 1.6256-.1016-1.8288v-.4572zm5.842-.2032 5.842 6.35-6.7056-3.048.254-1.1176zm-1.3208 2.286.254.9144-3.4544-1.1176 2.5908-1.6764zm-23.8252 0 .8128-.1524 2.9464 2.8956zm7.4168.0508-2.9464 3.2004-3.4544-3.3528zm13.1572-.1524 3.4544 1.1684-1.524 1.0668-1.524 1.016-.1524-1.0668zm.3048 3.2512-4.0132-.4572 3.6068-2.7432zm-22.7076.8128 1.7272-3.8608 4.4196 3.2004zm9.4996-3.8608 4.318 1.9304-3.8608 2.2352zm-.508.4572.3556-.4064.4572 4.064-3.3528-.8636zm5.2324 1.4224 4.064-1.6764.1016 1.5748.0508.8128zm15.0876 5.7404-6.4516-4.4704 3.1496-2.0828zm3.6068-2.286-3.4544 2.3876-3.2004-6.4008-.0508-.1524zm-5.9944-3.9116 6.096 2.794v1.016zm-19.6088 8.0264 1.0668-2.8956 1.5748-2.286v-.0508l4.0132-2.2352 4.4704.7112 3.7592 2.4892 2.3876 4.826v.0508l.2032 3.4544-1.5748 3.6068-3.3528 2.4384-3.1496 1.4224-2.8448-.3556-4.1148-2.3876-2.8956-4.6736.4572-4.0132zm14.8336-4.3688-3.4036-2.3368 3.9116.4572zm-22.0472-1.0668 6.1468-.7112.9144 6.096zm29.21 3.81-4.6228 2.0828-1.8288-6.604zm-7.0104-2.6416.4572-1.8288 1.4732 5.2832.2032.8128zm-15.2908-1.6764 2.7432.8128-1.4224 2.1336-1.8796-3.0988zm-.3048 1.8796-.254-1.8288 1.778 2.9972-.9652 2.6924zm-8.636 2.9972 1.8796-4.2672.8128 1.6764.9144 1.8288zm2.0828-4.1656 6.7056 5.1308-5.0292-1.7272zm30.5308 2.8448 2.286-1.5748-.8128 4.3688-2.5908-2.032zm2.3368-1.2192.6096 7.5692-1.3716-3.4544zm-35.2044 8.5852.2032-5.8928.9144-.2032 2.6924-.5588zm4.1148-6.6548 5.2324 1.8288-2.1336 4.1148-.1524.254zm23.0632 2.1336 4.4704-2.032 2.5908 2.032zm-23.2664-1.8288 1.1684 7.5184-2.5908-.9144zm-3.8608 6.5024 3.7084-6.4516-1.4224 6.5532zm4.5212-3.4544-.4572-2.9972 2.8956 5.9436-1.778 1.4732zm4.7244-1.2192-.4064 3.556-1.6764.508zm24.8412.1524-2.1336 1.7272-4.826-1.7272zm-7.1628.0508 4.9276 1.7272-2.6924 1.8796-1.6764-2.7432zm6.858 1.8796-1.6256-.2032 2.032-1.6256zm1.9304 1.6256-.6604-.5588-1.1176-1.016.3048-1.3716.1016-.508zm-8.89-3.4036 1.4732 2.3876.762 1.1684-1.9812-.3048zm6.1468 4.1656-.3556 1.0668-.5588-3.556 1.6764.254zm-.762-.9652.3048 2.1844-3.2512-1.778 1.3716-.9144 1.3208-.9652zm3.4036.3556.1524.1016-.4572.254-2.5908 1.4224 1.1684-3.3528zm-6.604.1016-3.4544 3.048 1.4732-3.3528zm-18.542 2.3368 1.0668 1.778-4.4196-3.8608.6096-.1524 1.1176-.3556zm20.3708-1.3716 1.6256.8636-6.096 3.7084 2.794-5.4864zm4.9276-.8128-1.27 4.6736-.508-.8636-1.27-2.0828 1.3716-.8128zm-8.128 2.6416-1.3716 2.6924-.6096-1.6256-.2032-.5588 3.4544-3.048zm-17.1196 2.8956-5.2832-3.8608 1.778-1.524 1.1684 1.778zm-2.9972-4.9276 4.2164 3.6576-.9144 1.4224-3.5052-5.2832zm-7.4676.1016 2.2352.0508 3.2004 6.858zm3.5052 2.3876-1.0668-2.286 2.5908.9144.0508.762.508 5.1308zm-1.6764 4.1656-1.8288-6.35 5.588 7.0612-1.1176-.2032zm27.178.9144-.0508-.1016-2.6416-2.4892 6.096-3.7084zm4.572-2.1336-4.4196 2.0828 3.4036-6.2484zm-23.5204 2.286-4.2672-.3048-.6096-6.096 2.8956 3.81zm-2.8956-4.0132-1.7272-2.286 5.2832 3.81-.1524.6096-.4064 1.778zm26.5176 1.6256-.9652-3.8608 1.6764 2.7432zm-11.4808-.4572 3.0988-2.2352.4064 1.1176.3556 1.1176zm-10.414-1.1176 5.4864 4.8768-6.4008-3.4544zm5.6388 4.826-5.0292-4.4704 3.4544 1.9304v.0508zm8.5852-3.6068-5.0292 3.7592 1.0668-3.7592zm1.27 6.7056-.1524.4064-.5588-4.3688-.3048-2.6416 2.6416 2.5908zm-1.27-6.5532-3.048 6.2484-1.9812-2.4892zm-5.1816 3.6576-2.9972.0508 4.064-3.7084-.3556 1.2192zm.8128-3.6576-3.7592 3.556.9652-2.2352zm5.3848 7.1628-3.9116.508 1.7272-4.3688 1.3208-3.2004zm-9.7536-3.5052-7.0104-1.0668.254-1.2192.3048-1.1684zm16.4592-2.6416-3.81 1.1684 3.6576-1.7272zm-16.0528 2.6416-1.3208-2.0828-.3556-.5588 2.6924.3048zm15.7988-2.3876-6.2484 5.7404 1.8288-4.4196zm-10.414 6.096-.0508-.762v-.2032l2.4384-5.0292zm-19.304-4.826-1.524-.762 1.8796.3556 1.2192.2032zm4.1656 4.318-4.0132-4.1656 1.778-.3048zm3.302.9652-5.3848-5.4356 4.318.3048zm-.1016.0508-2.8956-.7112-2.2352-4.4704zm3.4036-1.4732-4.064-3.6576 7.112 1.1176-2.6416 2.794-.0508.0508zm.6604 2.8956-3.81-1.3208-1.0668-5.08.254.3048zm.1524-.0508-4.6228-6.0452 4.1148 3.6068zm.8636-3.81 1.524-1.5748 2.8956-.0508-5.4356 2.6924zm6.6548.8636-7.5692.4064 5.588-2.8956zm-7.0612.508 7.112-.3556v1.2192zm-.6096.1016 7.5184.8636-3.4544 1.778zm3.8608 2.6416-3.556-.1016-.508-2.54zm7.5184-2.1844-3.4036 1.1684-.1016-.508v-.2032l2.032-.3048zm-6.604 2.032 2.9464-1.5748.1524.762-.8128.2032z"></path>
    <path transform="matrix(.264583 0 0 .264583 8.2482 -18.643)" d="m872.514 2.46289-.1914.193359-7.48829 2.30273-33.791-1.15234c-.192 0-.19277-.192-.38477 0h-8.44726l-3.64844 1.15234c-.192 0-.19141.193359-.19141.193359l-3.83984 7.67969v.382813l2.49414 19.0078-3.83984 28.2246v.191406l3.83984 14.209-1.34375 23.2324-1.53516 2.8789c-.192.192-.38476.19336-.38476.19336l-.57617 10.9434 1.3457 19.3926v.19141l14.0156 1.34375h5.375l9.79296 1.34375 7.8711-2.6875v-.19141l1.91992-8.83203v-.38477l-1.15234-26.6875 22.0801 1.34375h.38477l15.3594-2.49609 18.0488-7.87305h.19141l.19141-.574219 14.5937-22.6562-2.68945-34.3691v-.191406l-8.25586-10.752-.1914-.191406h-.19141l-14.5918-9.60156-24.3848-5.75977h-.19141zm-3.83932 30.7206 7.68 1.728 6.912 2.688 3.12609 5.68154 2.82591 5.26246-1.54321 7.1244c-.9021 3.70615-1.80362 7.98905-2.11307 8.59817-.30944.609119-3.6881 1.40654-7.06728 2.50701-6.13174 1.99688-6.78728 2.3308-6.78728 2.3308s-17.1157-1.21014-17.1436-1.19734l-3.5536-.355045-.11365-11.8791c.68965-10.5849-.0381-15.2798-.0381-15.2798l-.42422-4.71308z" style="fill:#ffd500;stroke-width:1"></path>
    <path d="m252.512-1.88758-.7112-9.0932v-.0508l-2.1844-2.8448-.0508-.0508h-.0508l-3.8608-2.54-6.4516-1.524h-.0508-.0508l-.0508.0508-1.9812.6096-8.9408-.3048c-.0508 0-.0508-.0508-.1016 0h-2.1336-.0508-.0508l-.9652.3048c-.0508 0-.0508.0508-.0508.0508l-1.016 2.032v.0508.0508l.6604 5.0292-1.016 7.4676v.0508l1.016 3.7592-.3556 6.1468-.4064.762c-.0508.0508-.1016.0508-.1016.0508l-.1524 2.8956.3556 5.1308v.0508l3.7084.3556h1.4224l2.5908.3556 2.0828-.7112v-.0508l.508-2.3368v-.0508-.0508l-.3048-7.0612 5.842.3556h.1016l4.064-.6604 4.7752-2.0828h.0508l.0508-.1524zm-13.208-15.9512 6.1976 1.4732-3.6576 3.556zm-.254.0508-.9652 7.7216-3.9624-4.4704zm-.3048.0508-3.9116 2.6416 2.2352-2.0828h.0508c0-.0508.0508-.0508.0508-.0508zm.508.1524.762 1.4732 1.6764 3.4036-1.27 2.6924-.2032.4572zm-13.2588.0508h1.9812l-.3048 1.4732zm2.2352 0 8.4328.3048-6.7056 1.6256zm-4.1656 1.9304.8128-1.6256.762-.254zm4.9276-.9144.762.8636-1.9812-.3048.3048-1.524zm-1.3716.6096-2.6924 2.54.9652-4.064zm10.8712 3.556.6604-5.08.4064 3.4544.5588 4.572-1.9304-.5588zm-12.8016-5.0292-.9144 4.064-.9144-1.8796zm4.5212 1.8288 6.6548-1.5748-1.016.9144-1.8796 1.6256zm19.2532 1.7272-5.7912 7.7216.0508-.254 1.9812-9.9568zm-3.9624-2.3368-1.9304 10.0584-.9144-3.5052-.8128-3.0988zm-15.748.6604-4.572 2.1336 2.5908-2.4892zm.254 0 1.9812.508 1.8796.508-2.032 2.2352-1.8288 1.9812zm-2.5908 1.2192 2.4892-1.1684v5.2324l-4.9276-2.9464zm-3.5052-.6096.8636 1.7272-.3048 2.5908zm6.1468 4.7752 3.8608-4.2164-.8128 4.9784zm4.9784-3.1496 2.8448 3.2004-2.9464-1.27-.762-2.8956zm-1.1684 3.1496-.5588.6096.7112-4.7244.8128 2.8956zm15.6972-3.556 2.032 2.6924-2.6416.8128zm-.6604 3.556-4.9276 3.8608 5.4356-7.3152zm-23.368-.7112-.6096-2.1844 2.794 1.6764 2.0828 1.27-2.9972 2.7432-.254.1524zm-.0508 2.1336-.9144-1.4224.3048-2.6924 1.1684 4.318.254 1.016zm16.0528-3.3528.1524-.3556.254 3.6068-1.6764-.5588zm1.27 3.3528.5588 2.286-1.3208-2.3368-.1524-3.2512zm-4.9276-1.27-4.572.6604.3556-.4572 1.27-1.4732zm12.4968-.4572 1.3208-.4064-.508 4.9276-2.1844-4.1148zm1.3716.1524.6096 7.8232-1.016-3.2512zm-18.288 3.4036-3.302-3.0988 2.9464.762zm-6.1976.6096-.6604-.762.2032-.2032 3.048-2.6924-.0508.1016-1.27 5.0292zm6.0452-.5588.1016.1016-.8128.3048-1.9304.6604-.1016-.8128-.508-3.302zm15.5448-3.048.1016 2.5908v1.9812l-1.4732-.9652-.7112-.4572zm-10.7696 0 2.032.6096 1.8288.5588 1.5748 2.8956-1.016 4.1656-3.6068 1.2192-5.4864-.3556.1524-5.842v-.0508-.0508l-.3048-2.4892zm11.3284.9144 1.7272 3.2004-2.032.508-.0508-1.3208-.1016-3.2512zm-24.7904-.8128 1.8288 2.7432-.4572 1.524-.1524.6096zm21.9964 2.9972-2.7432.762 4.7752-3.7592zm-17.4244 0 .7112-2.9464.5588 3.3528.1016.6604-.9652.508-.9144.4064zm-5.6388 3.9624.9652-6.9088 1.27 5.0292zm2.794-3.302.2032-.8128.6096.762 1.27 1.4732h-2.4892zm16.3068 4.2672.9652-3.9624 2.8448-.762zm5.5372-3.7592.7112.4572-1.016 1.778-.5588.9144-.3048-2.032-.3048-2.0828zm-15.1892-.4064-1.9812 3.2004-.254-2.1336-.1016-.6604 2.6924-.9652zm10.0584 4.7752-.4064-.3556 3.8608-4.8768-.762 7.3152zm-10.668-3.556 1.0668-1.6764-.1524 5.588-2.2352-1.7272zm14.0208.7112.254-2.032.6096 3.81-1.3716 2.8956zm2.2352 7.62.4064-7.8232.0508-.8128.7112-.1524 1.3716-.3048zm-17.78-6.35-2.1844-1.8288 1.8796-.9144zm17.8816 6.5532 2.4892-9.1948 1.1684 3.5052zm-1.3716-5.9944 1.5748-2.5908-.4572 8.4328zm-21.4884-2.3368h2.54l-3.81 5.3848zm2.7432.1016.508.4064 1.7272 1.524-1.27 6.0452zm-4.1656 5.3848-.9652-3.4544 2.2352-1.8796zm5.0292 2.6924-2.2352-3.8608 1.27-4.064zm-2.3368-3.8608-2.4892 1.27 3.7592-5.334-.4064 1.3208zm2.54 3.81 1.27-5.9944 1.27 2.3876zm2.6416-3.7084-1.1684-2.1844 2.032 1.6256zm13.5128 1.1176.762-1.6256.6604-1.3716 1.1176 5.9944zm-3.6068-1.9304-.6096 1.524-2.5908-.9144 3.4036-1.1176zm2.3368 4.9276-.8128 2.032-.4572-3.048-.6604-4.3688.9144.762 2.1336 1.6764zm-1.27 1.016-1.5748-4.318.8128-1.9812 1.016 6.858zm-4.5212-5.2832-.3556 3.5052-4.8768-3.8608zm-5.4356.4572.2032 3.7084-1.1684-3.8608.9144-.6096zm.2032 1.778-.1524-2.4892 4.826 3.8608-4.4704 1.1684zm4.9784 1.2192.4064-3.4036 2.6416.9144zm-13.97-1.9812 2.5908-1.27.1524 1.6764.4572 4.064zm2.9972 1.1176-.254-2.1844 2.2352 3.7592-1.6256 1.8796zm5.3848 0 .6096 2.1844-1.9304-.3048-1.9304-.3556 2.5908-3.6576zm8.5344 4.318-1.7272.254 1.778-5.5372.1524-.508.3556 1.016 1.5748 4.3688zm-2.3876-1.5748-.5588-1.6256 3.048-2.54-.9652 2.8956-.9652 2.9972zm4.7752 1.1176 1.9304-5.0292 2.5908 3.0988zm-19.6596 1.0668.3048-5.842 3.2512 4.5212zm15.3416-.3048-5.6896-.3556 4.5212-3.0988zm-1.4732-3.4036-4.318 2.9972v-1.8796zm-8.8392.9144.3556-.4572 3.81.6096-5.334 1.27zm2.0828 2.9464-.762.8636-2.54-2.286 5.4864-1.27zm2.286-2.6416v1.8796l-1.9812 1.1176-.762.4064zm-5.4356 1.524 2.3368 2.032-3.5052 1.3208.9652-3.556zm-4.6228 4.6228.1524-2.6924 3.9116-2.032zm2.1844-2.3368 2.032-2.3368-.9652 3.4544-1.27.508-1.8288.7112zm-1.9304-.5588.3556-.6096 2.8448-1.016zm9.7028-1.1684-4.1148 6.2992 1.27-4.7244zm.0508.1016-.7112 5.08-.254 2.032-1.6256-.3048-1.6256-.3556zm.4064 6.8072-1.2192.3048.9144-6.7056zm-3.5052-5.2832-3.2004 5.7912-.3048-4.4704zm-.0508.4572-1.2192 4.4704-1.8288.9652zm-6.858 2.2352 2.4384-1.016.762-.3048-1.4732 4.3688-.4572 1.4224zm1.3716 4.5212 1.8796-5.588.3556 4.3688zm-1.0668.4064-.3048-4.4196.1524.6096 1.016 3.556zm3.4544-1.5748 1.8288-.9652-.3048 2.794zm2.4892 1.4224-.8128.508.3048-2.8956 3.1496.6096zm4.1656-2.032-.4572 2.0828-.762-1.778zm-2.3876 2.8956 1.0668-2.4892.2032.4064.5588 1.4224zm.254-.9144-.4064.9144-2.3368-.3048 3.4036-2.1336zm-6.096.1524-.762-.2032.762-.4572 1.4224-.762.3048 1.8288zm3.048.4572h-1.1684l-.3048-1.778zm-2.1844-.1016-2.4892-.254.7112-.2032z"></path>
    <path d="m266.431-.566785.508-8.636v-.0508c0-.0508-.0508-.0508-.0508-.0508l-.6604-1.1684-.508-4.572.7112-2.6924v-.0508l-.0508-.0508-3.6068.3556-4.572-.3556-1.4224.3556-.0508.0508-.6604 2.032 1.016 4.1148-.8636 9.1948.508 4.1148.3556 5.08-.508 1.1684v.0508l-.1524 2.8448v.1016l.3048 5.08.0508.0508 3.7592.3048h1.3208.0508 2.6416l1.9812-.3048c.0508 0 .0508-.0508.0508-.0508l.1524-2.3368v-9.2456-.0508-.0508z" style="fill:#ffd500"></path>
    <path d="m266.431-.566785.508-8.636v-.0508c0-.0508-.0508-.0508-.0508-.0508l-.6604-1.1684-.508-4.572.7112-2.6924v-.0508l-.0508-.0508-3.6068.3556-4.572-.3556-1.4224.3556-.0508.0508-.6604 2.032 1.016 4.1148-.8636 9.1948.508 4.1148.3556 5.08-.508 1.1684v.0508l-.1524 2.8448v.1016l.3048 5.08.0508.0508 3.7592.3048h1.3208.0508 2.6416l1.9812-.3048c.0508 0 .0508-.0508.0508-.0508l.1524-2.3368v-9.2456-.0508-.0508zm-10.16-15.0876.5588-1.7272 1.1684-.3048zm10.0076-2.032-.6604 2.5908-2.8448-.9652zm-.3048 0-3.302 1.524.1524-1.2192zm-7.5184 0 4.064.3048-2.0828.9144zm1.778 1.3208-.762 1.0668-1.5748 2.0828.3048-4.4196zm-2.1336-1.2192-.1524 2.54-.1524 1.8796-1.5748-2.2352zm4.5212 1.0668-.0508.4064-1.9304-.3048 2.0828-.9144zm-1.778.2032 1.5748.3048-4.2672 2.6924 2.286-3.048zm1.8796 3.3528.1524 2.9464-4.9276-2.9972 4.6228-2.9464zm2.8448-2.032-2.54 4.7752-.3556-5.7404zm-8.382 3.4544-.9144-3.5052.8636 1.1684.6096.8636-.3556.8636zm8.4328-3.2512.508 4.2672-1.9304.3556-1.1176.1524 1.778-3.4036zm-7.6708 1.9304 4.8768 2.9464-3.2512 2.9464zm-.1016.0508.6096 2.2352.8636 3.2004-2.0828-3.9116zm-1.4732 10.5664.8128-8.636 1.6256 6.35-2.1844 2.032zm.9652-8.5344 2.1336 3.9624-.6096 2.1336zm8.8392.4064.5588 1.016-2.4892-.4064-.9144-.1524zm-3.1496.508 3.7084.6604-3.048 3.556-.508-3.1496zm-1.4732 5.2324-1.9304-2.2352 3.2004-2.8448zm2.032-.9144-1.8796.9652 1.27-4.9784zm3.0988-3.3528-2.6924 6.1976-.3048-2.7432 1.3208-1.524zm.1016.0508-.508 8.128-2.2352-1.7272zm-7.874 4.318.1524-.5588.508-1.6256.9144 1.1176.9652 1.0668zm2.794.0508 1.8796-.9144.1524 1.4224.1524 1.3716-1.0668-.9144zm-4.0132 3.8608 1.2192-3.81h2.54l-4.4704 6.096zm5.7404.2032-.8128 4.064-.9652-7.9756 2.1844 1.9304zm-6.604 2.0828-.4572-3.7084 1.3208-1.27 1.016-.9144-1.2192 3.81zm.2032.1524 4.3688-5.9436-1.2192 4.0132zm5.4864 1.9304-2.2352-3.81 1.27-4.064.4572 3.9116zm.2032 0 1.27-5.9944 1.2192 2.3368zm3.0988-4.0132-.4572.3048-.5588-1.016-.6096-1.1684 1.6764 1.27.4064.3048zm.4572-.2032.3048 4.6736-.0508-.2032-1.1176-3.8608zm-5.4864 6.4008-3.9116-3.9116 1.6256-.9652 1.6764-1.016.254 2.3368zm5.7912-1.27-3.8608-.6604 2.54-3.7592zm-5.842-.6096-.4064-3.7592 2.1844 3.7592-.508.6096-1.0668 1.27zm-3.556 2.9972-.3048-4.8768 3.9116 3.9116zm5.9944-2.8448 3.1496.5588-5.2324 1.2192 1.5748-1.8796zm1.4224 2.9972-.9652 1.1684-2.5908-2.2352 5.4864-1.3208zm-.4064.7112 2.4384-2.9972v1.8288l-1.9304 1.0668-.8128.4572zm-3.2004 1.4732-1.016.3556.9652-3.5052 2.54 2.2352zm-4.2164-1.2192.4064-1.016 3.2004-.8636zm2.4384-.254-2.6924 3.0988.1524-2.6416 3.9116-2.032zm-.4572.8128 2.032-2.3368-.508 1.8796-.4572 1.524-3.0988 1.27zm7.112-1.4224.6096-.3048-4.064 6.2484 1.27-4.7244zm-.254 6.9088-3.2512-.6604 4.2164-6.5024zm.3556-1.9812.6604-4.572v6.1976l-.9144.3556zm-5.9944-1.4224-.0508-.9144 3.556-1.3208-2.3368 4.2672-.8636 1.524zm.4064 3.6576 2.9972-5.4356-1.1684 4.5212zm-3.8608-3.2004 3.2512-1.3208-.508 1.4224-1.4732 4.318zm1.4224 4.572 1.8796-5.6896.3048 4.4196zm-1.0668.3556-.3048-4.4196.1524.5588 1.016 3.6068-.3048.1016zm5.1308.3556.3048-2.8956.8128.1524 2.3368.508zm-1.1684-1.3208-.508-.6096 1.8796-.9144-.1524 1.1176-.2032 1.6764zm5.7912-1.1684-.1524 1.9812-.254-.5588-.4572-1.1684.4572-.1524zm-.2032 2.2352-1.8288.3048 1.0668-2.1844.1524.4064zm-4.318.3048 3.3528-2.1336-1.016 2.1336zm-1.7272-.6096.0508.5588-.9652-.2032-1.4732-.4064.8636-.4572 1.3208-.762zm1.3716.6096h-1.1176l-.254-1.3208-.0508-.4064zm-1.9812-.0508-2.6416-.254.7112-.254.5588.1524z"></path>
    <path d="m302.296 13.708-.3048-5.0292c0-.0508 0-.0508-.0508-.0508l-1.524-1.0668-3.81.508-7.4168-.508-4.4704.5588 3.0988-2.1336v-.0508l1.7272-3.2004v-.0508l2.8448-3.5052 4.1148-2.7432v-.0508l2.3876-5.08 2.8956-1.9812v-.0508-.0508l-.1524-6.2992v-.0508h-.0508l-4.8768-.508h-.0508c-.0508-.0508-.0508 0-.0508 0l-5.9944.3556-8.1788-.1016-8.4328-.4572h-.0508l-1.5748.3556-.0508.0508-.6096 2.8956v.0508l.5588 5.3848.0508.0508 4.9784.3556h.0508l.0508-.0508 1.7272-.8128 5.1816 1.2192h.0508.0508l4.4196-1.0668-1.7272 1.27c-.0508 0-.0508.0508-.0508.0508s-.0508 0-.0508.0508l-3.2512 3.0988-.1016.0508s0 .0508-.0508.0508v.0508l-5.4356 5.5372v.0508l-3.7592 5.9436-1.524 1.016-1.8796 2.032v.0508l.1524 6.1468.3556.8636.0508.0508 4.064-.3556 2.5908.3556h.0508l10.668-.508 2.8956.508h.0508l5.3848-.3556h.0508l4.318-.508c.0508 0 .0508-.0508.0508-.0508l.6096-2.1844v-.0508z" style="fill:#ffd500"></path>
    <path d="m302.296 13.708-.3048-5.0292c0-.0508 0-.0508-.0508-.0508l-1.524-1.0668-3.81.508-7.4168-.508-4.4704.5588 3.0988-2.1336v-.0508l1.7272-3.2004v-.0508l2.8448-3.5052 4.1148-2.7432v-.0508l2.3876-5.08 2.8956-1.9812v-.0508-.0508l-.1524-6.2992v-.0508h-.0508l-4.8768-.508h-.0508c-.0508-.0508-.0508 0-.0508 0l-5.9944.3556-8.1788-.1016-8.4328-.4572h-.0508l-1.5748.3556-.0508.0508-.6096 2.8956v.0508l.5588 5.3848.0508.0508 4.9784.3556h.0508l.0508-.0508 1.7272-.8128 5.1816 1.2192h.0508.0508l4.4196-1.0668-1.7272 1.27c-.0508 0-.0508.0508-.0508.0508s-.0508 0-.0508.0508l-3.2512 3.0988-.1016.0508s0 .0508-.0508.0508v.0508l-5.4356 5.5372v.0508l-3.7592 5.9436-1.524 1.016-1.8796 2.032v.0508l.1524 6.1468.3556.8636.0508.0508 4.064-.3556 2.5908.3556h.0508l10.668-.508 2.8956.508h.0508l5.3848-.3556h.0508l4.318-.508c.0508 0 .0508-.0508.0508-.0508l.6096-2.1844v-.0508zm-27.7876-31.3944 7.366.4064-3.6068.7112zm3.6068 1.2192-1.016.8636-.9144.762-2.0828-2.8448zm-2.0828 1.6256-4.1148.254 2.032-3.0988zm-4.1148 0 .5588-2.54 1.3208-.3048-.9652 1.4732zm24.5364-2.6924-.3048.2032-1.778 1.27-3.4036-1.1176zm.3048 0 4.6736.508-2.6416 2.7432zm-1.2192.762 1.016-.7112 1.4732 5.7404.6604 2.5908-1.016-1.6256-3.1496-5.2324zm-12.954-.508 7.1628.1016-5.8928.7112zm1.0668.8128-4.826-.1016 3.556-.7112zm14.3256 4.1148-1.1684-4.826 1.9304 2.9972.0508 4.9276zm-6.096-4.4196 2.2352.762-4.572.7112 1.0668-1.8796zm-1.4224-.3556-.5588 1.016-.508.8636-5.1308-1.1176zm11.0236.2032.2032 5.9944-2.794-3.2512zm-20.574 2.1844-4.572-.1016 1.27-1.0668.6604-.508zm-2.3368-1.6764 5.08.0508-2.4384 1.5748-1.27-.762zm6.9088 5.7912-4.2164-4.064 2.54-1.6256 1.0668 3.6576zm3.8608-4.5212-.4572 5.4356-4.8768-6.604zm-3.7084 4.6736-1.6256-5.588 4.826 6.4516zm3.7084-3.302.1524-1.3716 4.7244-.762-5.1816 6.1976zm7.9756 2.6416 1.3716 2.3368-3.8608-.1016-.0508-1.1684-.3048-5.6896zm-2.9464-4.572.254 5.842.0508.9652-3.4036 1.5748zm-5.334 6.1976 5.2324-6.1976-3.0988 8.382zm-12.7508-5.1816 4.7752.0508-1.9812 4.826zm.9652 5.7404-5.334-5.5372 4.2164-.2032zm8.1788-1.524-6.1976.762 1.9812-4.8768zm-8.2296 1.6256-4.7752-.3556-.5588-5.1816zm1.8288-.8128-1.6256.8128-1.0668-5.5372 1.524 2.6416zm22.606-1.1176-2.7432 1.9304v-2.0828l-.0508-3.0988zm-12.9032 1.27-4.2164 1.016.4064-.7112.6604-1.1684zm-9.2456-.1016 5.9944-.762-1.1684 1.9304zm7.7724 1.524 1.7272-1.3208 1.9812 2.0828-1.4224-.3048zm7.5692-.7112 3.7592.1016-4.064 1.8796.254-1.4732zm-.3556 1.3716-.1016.6604-2.9464-.4572 3.2512-1.524zm.0508.762 4.2164-1.9304-2.286 4.8768-.9652-1.4732zm-10.5664 1.6764 3.1496-2.9972 3.7592.8128zm12.3444 1.3208-10.8712 2.8448 5.7404-6.2992zm-.6096-.9652.508.762-4.6736-3.2004 2.3368.3556.508.1016zm-11.938-.1524 7.1628-2.286-5.6896 6.2484zm-5.334 5.4864 5.2324-5.3848.4064 1.0668 1.0668 2.8448zm17.7292-4.1656-3.7592 2.4892-6.604.2032zm-3.8608 2.6416-2.8448 3.4036-4.064-3.2512zm-9.8044 7.112 2.7432-6.9088 4.1148 3.302zm.4572-1.4224-.5588 1.4224-.4572-.8128-1.8796-3.302 5.0292-2.7432zm1.8288-5.4356-4.8768 2.6924-1.524-1.27zm-10.0584 7.0612 3.5052-5.588.8128.6096.8128.6604zm3.7084-2.032 1.4732-2.0828.1524 2.5908.0508.9144-3.9116 1.778zm1.778.8636-.2032-2.8448 1.524 2.54.7112 1.3208-1.9812-.4572zm-4.9276.8128 4.2672-3.556-3.556 5.1308-1.4224-.9652zm14.0716-3.302-1.6256 3.048-4.9784.4572zm-7.2136 3.6068-2.5908.9652.254-.6096.3556-.8128zm1.016.508-.6096-.4572 4.9784-.508-2.8956 2.0828zm-6.7564.762 3.6576-1.6256-.254.5588-.4064.8128zm2.8448 6.8072.254-6.9088 2.032-.762.762-.3048zm4.064-7.3152 1.2192.9652-.8636 1.0668-4.2672 5.2832 3.048-7.9756zm-10.16.5588 1.3208-.9144 1.3208.9144zm2.9464.1016 3.2512-.254-.0508 2.032-.2032 5.0292zm19.6088.254-7.5184.4572 1.016-.8636zm4.572-.4064-.0508.1016-2.794 5.6388-.5588-4.2164-.1524-1.0668zm-15.1892.4572 3.9116-.4572-.2032.2032-.8128.6604zm15.3924-.4064 1.3716.9144.3048 4.5212-1.27-4.064zm-.1524.1016v-.1016l1.8288 5.9436-4.6736-.1016zm-29.0068 1.8288 1.6764-1.8288h2.6924zm-.1016.1524 4.7244-1.9304-.7112 3.048-.4572 1.9812zm3.6068 3.2512.7112-3.0988.4572-1.9304 1.0668 4.2672 1.016 4.2672zm13.3096-4.3688 8.382-.508-4.1148 5.334zm-3.4036-.508 3.2004.508.1016.9144.8128 6.2484zm9.8552 2.6924 2.032-2.5908.7112 5.2832-4.7752-.0508zm-5.7912 5.2324-4.572-2.0828.1016-1.1176.3556-4.572.6604 1.27zm-4.6736-2.0828-4.7752.762 5.1816-6.4008zm-6.4008.5588-1.4224-5.9944 2.794 6.2992-.8636 1.7272zm10.7188-2.8956-.3556-2.8956 4.2164 4.7752-3.2512 2.54zm-17.1196 4.1148-.2032-5.842 3.556 3.0988zm3.4036-2.5908.8128 3.1496-4.1656-.4572zm3.3528 3.5052-2.3876-.3048-.8128-3.1496zm17.018-1.3716-5.842.8128 3.1496-2.4892.9144.5588zm.8636-.5588-.6604.508-1.1176-.7112-1.524-.9144 4.572.0508zm5.842-1.016-6.2484 1.524.508-.4572 1.3716-1.1176zm-6.096 1.5748 6.5024-1.524-.6096 2.032zm-17.0688 1.3716 5.5372-2.5908 4.572 2.1336zm-.254-.0508.8128-1.7272 4.4704-.7112zm18.3896-.4064.3048.1524-4.826.3048 2.9972-1.27zm4.318-.3048-3.7592.4572-1.6764-.9144zm-11.7348.3556 5.4356-.8128-2.9464 1.2192zm-14.3256.1524-3.4036.254-.3048-.7112z"></path>
    <path d="m334.453 14.978v-3.1496l-.3556-1.3208.6604-2.4892v-.0508-.0508h-2.1336l-4.3688.6604h-.0508l-2.6924.508-3.9116-.6604h-.0508l-5.5372.3556-.508-2.9972.6604-2.54 4.7244.3556h.1016l4.826-.508 3.3528.2032h.0508.0508l1.8796-.3556c0-.0508.0508-.0508.0508-.0508l.8128-1.6256.3556-3.81c.0508-.0508 0-.1016 0-.1016l-1.3716-2.032h-.0508l-1.524.3048-8.2804-.0508h-.0508l-4.7244.5588-.508-1.9812.508-3.3528 5.08-.254 3.7084-.5588 5.4864.508 3.7592-.7112h.0508v-.0508l-.508-1.2192.254-3.302v-.0508-2.0828s0-.0508-.0508-.0508l-1.27-.8636-4.1656.3048-7.4168-.3048h-5.334l-6.096.3556-3.4036-.508c-.1016 0-.1016.0508-.1016.0508l1.016 4.9784-.8128 6.7564c-.0508.0508 0 .0508 0 .1016l.508 3.302-.7112 4.2672.3556 4.9784-.3556 3.2004v.0508.0508l1.016 3.5052-1.016 3.2512.0508.0508 1.524.3556h.0508l10.7188-.7112 4.064.8636h.0508l3.048-.3556h9.1948c.0508 0 .0508-.0508.0508-.0508z" style="fill:#ffd500"></path>
    <path d="m334.453 14.978v-3.1496l-.3556-1.3208.6604-2.4892v-.0508-.0508h-2.1336l-4.3688.6604h-.0508l-2.6924.508-3.9116-.6604h-.0508l-5.5372.3556-.508-2.9972.6604-2.54 4.7244.3556h.1016l4.826-.508 3.3528.2032h.0508.0508l1.8796-.3556c0-.0508.0508-.0508.0508-.0508l.8128-1.6256.3556-3.81c.0508-.0508 0-.1016 0-.1016l-1.3716-2.032h-.0508l-1.524.3048-8.2804-.0508h-.0508l-4.7244.5588-.508-1.9812.508-3.3528 5.08-.254 3.7084-.5588 5.4864.508 3.7592-.7112h.0508v-.0508l-.508-1.2192.254-3.302v-.0508-2.0828s0-.0508-.0508-.0508l-1.27-.8636-4.1656.3048-7.4168-.3048h-5.334l-6.096.3556-3.4036-.508c-.1016 0-.1016.0508-.1016.0508l1.016 4.9784-.8128 6.7564c-.0508.0508 0 .0508 0 .1016l.508 3.302-.7112 4.2672.3556 4.9784-.3556 3.2004v.0508.0508l1.016 3.5052-1.016 3.2512.0508.0508 1.524.3556h.0508l10.7188-.7112 4.064.8636h.0508l3.048-.3556h9.1948c.0508 0 .0508-.0508.0508-.0508zm-27.7876-32.8168 3.1496.4572.8636 2.4892zm-.1016.0508 4.2164 3.0988-1.9812 2.5908-.4572-1.1176zm9.5504.1016h4.826l-3.2512 1.5748zm5.6896.4572 1.1176.9144-4.9784.2032 3.302-1.5748zm10.8712-.4572-1.9812 2.1844-.9652-1.016-.8636-.9144zm-11.176 0 6.7564.254-5.1308 1.1176-.4064-.3556zm-5.842 0-4.7752 2.8956-.9652-2.5908zm1.9304 1.6256-4.4704 3.81 1.2192-2.3368 1.6256-3.0988zm15.1384-1.4732.1016-.1524 1.0668 2.3368.1524.4572-3.2004-.6096zm.254-.0508 1.0668.7112v1.6256l-.9144-2.032zm-17.1704 0-2.8956 5.4864-1.9304-2.5908zm12.9032.2032 1.8288 1.8796h-3.9116zm-.254 0-1.9812 1.8796-1.8288-.4064-1.2192-.3048zm-21.844.1016 2.032 5.1308-1.1684-.9144zm11.2776 1.27 5.1816-.1524.1524.9652.3556 1.9304zm5.588 1.778-.3048-1.9304 3.0988.762-1.27 1.0668-1.3208 1.016zm0 1.0668-4.7244 1.4732-.508-2.1336-.4572-2.1336zm-7.2136 3.81-.8636-.7112-2.3876-1.9304 4.572-3.9116zm1.2192-1.1684-1.0668 1.0668 1.27-6.35.9144 4.1656zm13.0556-4.826-5.2832 5.08 1.27-5.08zm.254.0508 1.9812.9144-1.5748 1.2192-.1524-.8636zm-4.7244 4.3688 4.5212-4.3688.508 2.1844-5.6388 2.794zm7.7724-3.8608-.9652.3556-.762-.3556-.9652-.4572 1.0668.1524zm-7.5184-.254-1.1684 4.7752-1.4224-2.8956 2.6416-2.0828zm7.7216.3048-.2032 2.9464-.254-.6604-.6096-1.8796zm-21.2344 2.7432-2.2352 1.8796-1.27 1.016.3556-1.27 1.2192-4.2164zm-3.9624.0508 1.8796-2.4892-1.524 5.1816zm23.2156-.6096-.8128-.508.8128-.6096.762-.6096.9144 2.6924zm-9.2456.508-1.4224 2.3876-1.5748-1.1684-1.016-.762 4.6736-1.4732zm-1.27 2.4384 1.3716-2.286.7112-1.1684 1.4224 2.8956zm3.81-.508 5.7404-2.8448-.3556 2.1844-.1524 1.1176zm5.842-2.794 2.9972 2.5908-3.5052.6604zm-24.4856 6.2484.762-6.2484 1.27.9652-1.016 2.5908zm27.5336-3.81-1.4732-1.27-1.016-.8636 2.0828 1.2192zm-24.9428 1.5748 3.5052-2.9464-.3556 4.572zm3.2512 1.5748.254-2.6924.1524-1.8288 3.2004 2.5908zm-5.4356-.1016 1.6256-4.2672.3048 2.1844.1016.5588-2.3876 2.54zm14.1224-2.1844-4.7752.3048 2.2352-2.1844 1.9304 1.4224zm-5.08.508-1.6764 2.8448-1.8796-.9652zm.0508.1524-.4572 3.048-1.1176-.3048zm-9.4996 2.7432 2.4892-2.5908 2.7432 5.5372zm5.334 2.8448-2.6924-5.3848 3.048 1.5748zm.1016 0 .3048-2.9972.1016-.762 1.8288.9652zm3.2004-1.5748.8128 1.0668-2.2352.4064-1.6764.254.6604-.8128 1.5748-2.0828zm.4064-.8636.4064 1.7272-.3048-.4064-1.1684-1.5748zm-9.0932-.254 5.1816 2.8956-4.6736.3048zm22.9108 1.778 1.3716-.3048 1.1684 1.778zm-8.5344 0-.2032 1.8796-2.8448-.9144-1.3716-.4572zm1.1684 0 6.8072.0508-1.524.7112zm-.762.0508 5.7912.8128-2.7432 1.0668-1.1684-.7112zm10.5156 1.524-4.2164-.762 1.6764-.762zm-10.7696-1.524 2.3368 1.4224.762.4572h-3.3528l.1016-.9652zm-8.89 1.1684 3.9624-.6604v3.556l-1.3208-.9652zm4.064-.6096 2.4384 2.3368-2.4384 1.1684zm4.3688 1.3716-1.8288.9144-2.3368-2.2352zm9.0932.9144-2.4384 1.2192.1016-1.5748.1016-1.6256 4.5212.8128zm-2.4384-.3556-.1016 1.524-2.6416-2.0828 1.4224-.508 1.4224-.5588zm-20.1168-.9652 4.572-.3556-2.54 2.0828-.7112-.5588zm8.0772 2.032.7112.508-6.604-.762 2.6416-2.0828zm-8.8392 2.032.6604-3.9624 2.032 1.7272zm25.7556-3.8608-.3556 3.6068-4.4196-1.1684zm-6.5532 5.334-4.6736-5.08h3.4036zm-5.3848-2.9464-1.2192-1.1176.762-.4572.9144-.4572-.2032 1.016-.2032 1.0668zm2.1844 1.27-2.032-1.1176.4572-2.1844 4.5212 4.8768zm4.0132.254-.7112 1.4224-1.2192-4.9784 2.6924 2.1336zm-6.1976-1.3716-3.9624 2.8956 2.5908-4.1148zm-1.6764-.9144-2.4384 3.7592.1016-2.286.0508-.6096 2.4384-1.1176zm-2.6416.8636-5.4356 2.5908-1.1684-3.4036zm-6.7564-.762.6096 1.6764.5588 1.6764-3.8608-1.1176zm22.5552 1.9812-2.54 1.9304-1.778-3.0988zm-18.3896 2.794-.8636 1.3208-1.9304-2.6416 5.4864-2.5908zm15.6972-.8128-3.2004-.2032 1.4224-2.8956.9144 1.5748zm-8.128.3048-.508-3.3528 5.08 2.8448zm-4.6736-.3556 4.0132-2.9972.3556 2.2352.2032 1.1176zm-3.0988 1.778-.4572.3048.7112-1.016 2.7432-4.0132-.1524 2.9464zm18.5928-3.556-.7112 1.4224-1.6256.3556zm-25.2476.254 2.286.6604 1.524.4572-1.9304 2.54-.6604-1.2192zm.254 4.7244-.3048-4.5212 1.8796 3.556-1.2192.762zm4.3688-2.6416 1.27 1.7272-3.5052 2.8448 1.6256-5.4356zm-2.6924 1.778v-.0508l1.8796-2.4384-.762 2.5908-.7112 2.54zm7.0612-1.8796.4572-.254-.6096 2.3368-2.6416-.3048zm-.9652 3.2512-2.3368 3.0988.3556-4.4704 2.6924.3556zm-2.286.9652-.2032 2.286-3.1496-1.6256 3.5052-2.8956zm-5.7912 1.524.3048-2.8448 1.4732-.8636-.7112 1.4732zm1.9304-3.6576.3556 2.7432-2.2352 1.1176zm7.4676 3.0988-3.6068 1.27 3.0988-4.1148zm16.8656-.762h1.8288l-1.2192 1.6256zm.3048 1.1684.2032.508-2.4892.8128-2.794.8128 4.6228-3.2512zm-.9144-1.0668-6.9088 2.8448 2.9972-2.2352zm2.4384.1016-.6096 2.1844-.0508-.1016-.508-.5588zm-2.4384 0-1.0668.8128-3.556 2.4384-2.4384-.3048zm-15.494.6096 4.8768-.3048.4572.9144zm8.382.3048-2.8956.3048-.4572-.8636zm-12.9032 4.8768-5.588-4.318 1.1176-.5588 1.1684-.5588 1.8288 2.9972zm-2.3876-4.1656-.762-1.2192.9144.4572 2.1844 1.1684.2032 3.7592zm18.2372-1.0668-3.048 2.286.6096-1.8288zm-5.9944.762-.8128 1.1176-.8128 1.0668-4.1148-2.794zm-6.1976-.6096-3.3528 5.1816-.254-3.8608zm4.4196 2.8448-4.2164 1.7272v-4.572zm-4.318 1.778-3.3528.6604 3.3528-5.1816zm6.4008-4.0132 3.0988-.3048-.2032.6096-.4572 1.27-.8128-.508zm-.762.762.5588-.7112 2.54 1.5748-4.1148.5588zm6.4516 1.1684 5.2324-1.6256-.9144 1.8796zm-20.5232 1.7272-.9652-3.3528 5.6388 4.318zm26.416-2.7432.0508.0508-1.4732 1.1176.9144-1.7272zm.4064 1.27h-1.7272l1.0668-.8128.3556-.3048zm-9.3472-.4572 2.54.3556-.8636 2.54-.4064 1.2192zm-1.5748.2032 1.27-.1524-2.8448 2.1844-.6604-.8128-.6096-.8128zm.3556 2.6416-.9652 2.6924-.1016-.4064-.8128-2.794 2.794-2.1844zm1.1176-2.6416 1.27 4.1148-3.2512 1.3208zm2.7432.1524 4.5212.254-5.7912 3.6068zm6.604.254-3.9624 2.794 2.1336-2.794zm-17.9324 1.6764 4.1148-1.6764 1.27 1.6764zm13.8176 1.3716 4.1148-2.8956-2.2352 3.81-.6604-.3048zm4.2164-2.8448v2.8448l-2.1336.8128zm-7.8232 3.4544 5.5372-3.4544-.3048.4572-1.8288 2.3876zm-17.0688.4064-1.4224.8128-.4572-3.4036 4.6736.9652zm-2.8956.508.9144-2.8956.4572 3.2004zm12.192-.4064-2.5908-2.3876h5.4356zm-.3048-.0508-5.7404-1.7272 3.2512-.6096 1.4732 1.3716zm.4572.1016 2.54-2.0828.3556-.3048.9144 3.2004zm-10.6172.6604 4.1148-2.4384 5.9436 1.778zm18.034-.2032 3.6576-1.524 1.8288.8128zm8.0772-1.4732.5588 1.4732-2.7432-.6604.4064-.1524zm-4.9276.0508-3.4544 1.4224.3048-.8636zm-6.1976 1.778 2.8448-1.1684-.1524.5588-.1016.3048zm9.652-.7112 1.6764.4064h-2.794l.3048-.6604zm-1.27.4064h-4.826l5.08-.6096-.1524.4064z"></path>
  </g>
</svg>
