<svg version="1.1" viewBox="0 0 32 32" xmlns="http://www.w3.org/2000/svg">
  <path d="m-6 19.44v-6.888h10.61v-5.556l10.39 9-10.39 9v-5.556z" style="fill:#4a0;stroke-width:1.234"/>
  <rect y=".0517" width="32" height="32" rx="4" ry="4" style="opacity:0"/>
  <path d="m38 19.44v-6.888h-10.61v-5.556l-10.39 9 10.39 9v-5.556z" style="fill:#fb0;stroke-width:1.234"/>
  <path d="m19.44-6h-6.888v10.61h-5.556l9 10.39 9-10.39h-5.556z" style="fill:#f00;stroke-width:1.234"/>
  <path d="m19.44 38h-6.888v-10.61h-5.556l9-10.39 9 10.39h-5.556z" style="fill:#06f;stroke-width:1.234"/>
</svg>
