<svg width="512" height="284" viewBox="0 0 512 284" fill="none" xmlns="http://www.w3.org/2000/svg">
  <g id="software-sucks">
    <g id="software-sucks__no-more" transform="translate(0 280.87) rotate(-90)" fill="black" font-family="Bushcraft" font-weight="bold">
      <text font-size="184" letter-spacing="-0.02em">
        <tspan x="0" y="140">NO</tspan>
      </text>
      <text font-size="56">
        <tspan x="168" y="140">MORE</tspan>
      </text>
    </g>
    <g id="software-sucks__items" class="glitch" fill="black" font-family="Roboto Condensed" font-size="72" font-style="italic" font-weight="bold" letter-spacing="-0.025em">
      <text class="glitch-text">
        <tspan x="150" y="56">APPS</tspan>
        <tspan x="150" y="112">FILES</tspan>
        <tspan x="150" y="168">CYBERCRUD</tspan>
        <tspan x="150" y="224">LOCK-IN</tspan>
        <tspan x="150" y="280">LIES</tspan>
      </text>
    </g>
  </g>
</svg>
